\relax 
\@writefile{lof}{\contentsline {figure}{\numberline {1}{\ignorespaces Primerjava podatkov ter modela po izra\IeC {\v c}unanih parametrih}}{2}}
\@writefile{lof}{\contentsline {figure}{\numberline {2}{\ignorespaces S primerjavo vrednosti dolo\IeC {\v c}ena maksimum ter minimum funkcije}}{5}}
\@writefile{lof}{\contentsline {figure}{\numberline {3}{\ignorespaces Primerjava letnih prirastkov glede na vir podatkov}}{6}}
\@writefile{lof}{\contentsline {figure}{\numberline {4}{\ignorespaces Primerjava sprememb letnih prirastkov glede na vir podatkov}}{7}}
