%!PS-Adobe-3.0 EPSF-3.0
%%Title: glps_renderer figure
%%Creator: GL2PS 1.3.9, (C) 1999-2015 C. Geuzaine
%%For: Octave
%%CreationDate: Sun Mar 13 01:00:48 2016
%%LanguageLevel: 3
%%DocumentData: Clean7Bit
%%Pages: 1
%%BoundingBox: 0 0 576 432
%%EndComments
%%BeginProlog
/gl2psdict 64 dict def gl2psdict begin
0 setlinecap 0 setlinejoin
/tryPS3shading false def % set to false to force subdivision
/rThreshold 0.064 def % red component subdivision threshold
/gThreshold 0.034 def % green component subdivision threshold
/bThreshold 0.1 def % blue component subdivision threshold
/BD { bind def } bind def
/C  { setrgbcolor } BD
/G  { 0.082 mul exch 0.6094 mul add exch 0.3086 mul add neg 1.0 add setgray } BD
/W  { setlinewidth } BD
/FC { findfont exch /SH exch def SH scalefont setfont } BD
/SW { dup stringwidth pop } BD
/S  { FC moveto show } BD
/SBC{ FC moveto SW -2 div 0 rmoveto show } BD
/SBR{ FC moveto SW neg 0 rmoveto show } BD
/SCL{ FC moveto 0 SH -2 div rmoveto show } BD
/SCC{ FC moveto SW -2 div SH -2 div rmoveto show } BD
/SCR{ FC moveto SW neg SH -2 div rmoveto show } BD
/STL{ FC moveto 0 SH neg rmoveto show } BD
/STC{ FC moveto SW -2 div SH neg rmoveto show } BD
/STR{ FC moveto SW neg SH neg rmoveto show } BD
/FCT { FC translate 0 0 } BD
/SR  { gsave FCT moveto rotate show grestore } BD
/SBCR{ gsave FCT moveto rotate SW -2 div 0 rmoveto show grestore } BD
/SBRR{ gsave FCT moveto rotate SW neg 0 rmoveto show grestore } BD
/SCLR{ gsave FCT moveto rotate 0 SH -2 div rmoveto show grestore} BD
/SCCR{ gsave FCT moveto rotate SW -2 div SH -2 div rmoveto show grestore} BD
/SCRR{ gsave FCT moveto rotate SW neg SH -2 div rmoveto show grestore} BD
/STLR{ gsave FCT moveto rotate 0 SH neg rmoveto show grestore } BD
/STCR{ gsave FCT moveto rotate SW -2 div SH neg rmoveto show grestore } BD
/STRR{ gsave FCT moveto rotate SW neg SH neg rmoveto show grestore } BD
/P  { newpath 0.0 360.0 arc closepath fill } BD
/LS { newpath moveto } BD
/L  { lineto } BD
/LE { lineto stroke } BD
/T  { newpath moveto lineto lineto closepath fill } BD
/STshfill {
      /b1 exch def /g1 exch def /r1 exch def /y1 exch def /x1 exch def
      /b2 exch def /g2 exch def /r2 exch def /y2 exch def /x2 exch def
      /b3 exch def /g3 exch def /r3 exch def /y3 exch def /x3 exch def
      gsave << /ShadingType 4 /ColorSpace [/DeviceRGB]
      /DataSource [ 0 x1 y1 r1 g1 b1 0 x2 y2 r2 g2 b2 0 x3 y3 r3 g3 b3 ] >>
      shfill grestore } BD
/Tm { 3 -1 roll 8 -1 roll 13 -1 roll add add 3 div
      3 -1 roll 7 -1 roll 11 -1 roll add add 3 div
      3 -1 roll 6 -1 roll 9 -1 roll add add 3 div C T } BD
/STsplit {
      4 index 15 index add 0.5 mul
      4 index 15 index add 0.5 mul
      4 index 15 index add 0.5 mul
      4 index 15 index add 0.5 mul
      4 index 15 index add 0.5 mul
      5 copy 5 copy 25 15 roll
      9 index 30 index add 0.5 mul
      9 index 30 index add 0.5 mul
      9 index 30 index add 0.5 mul
      9 index 30 index add 0.5 mul
      9 index 30 index add 0.5 mul
      5 copy 5 copy 35 5 roll 25 5 roll 15 5 roll
      4 index 10 index add 0.5 mul
      4 index 10 index add 0.5 mul
      4 index 10 index add 0.5 mul
      4 index 10 index add 0.5 mul
      4 index 10 index add 0.5 mul
      5 copy 5 copy 40 5 roll 25 5 roll 15 5 roll 25 5 roll
      STnoshfill STnoshfill STnoshfill STnoshfill } BD
/STnoshfill {
      2 index 8 index sub abs rThreshold gt
      { STsplit }
      { 1 index 7 index sub abs gThreshold gt
        { STsplit }
        { dup 6 index sub abs bThreshold gt
          { STsplit }
          { 2 index 13 index sub abs rThreshold gt
            { STsplit }
            { 1 index 12 index sub abs gThreshold gt
              { STsplit }
              { dup 11 index sub abs bThreshold gt
                { STsplit }
                { 7 index 13 index sub abs rThreshold gt
                  { STsplit }
                  { 6 index 12 index sub abs gThreshold gt
                    { STsplit }
                    { 5 index 11 index sub abs bThreshold gt
                      { STsplit }
                      { Tm }
                      ifelse }
                    ifelse }
                  ifelse }
                ifelse }
              ifelse }
            ifelse }
          ifelse }
        ifelse }
      ifelse } BD
tryPS3shading
{ /shfill where
  { /ST { STshfill } BD }
  { /ST { STnoshfill } BD }
  ifelse }
{ /ST { STnoshfill } BD }
ifelse
end
%%EndProlog
%%BeginSetup
/DeviceRGB setcolorspace
gl2psdict begin
%%EndSetup
%%Page: 1 1
%%BeginPageSetup
%%EndPageSetup
mark
gsave
1.0 1.0 scale
1 1 1 C
74.88 399.6 521.28 47.52 74.88 47.52 T
74.88 399.6 521.28 399.6 521.28 47.52 T
0.5 W
[16 0] 0 setdash
0 0 0 C
74.88 47.52 LS
521.28 47.52 LE
74.88 399.6 LS
521.28 399.6 LE
74.88 47.52 LS
74.88 399.6 LE
521.28 47.52 LS
521.28 399.6 LE
[0 3 1 3 1 3 1 3 1 0] 0 setdash
131.981 47.52 LS
131.981 399.6 LE
219.25 47.52 LS
219.25 399.6 LE
306.519 47.52 LS
306.519 399.6 LE
393.788 47.52 LS
393.788 399.6 LE
481.057 47.52 LS
481.057 399.6 LE
[16 0] 0 setdash
131.981 47.52 LS
131.981 51.985 LE
131.981 399.6 LS
131.981 395.135 LE
219.25 47.52 LS
219.25 51.985 LE
219.25 399.6 LS
219.25 395.135 LE
306.519 47.52 LS
306.519 51.985 LE
306.519 399.6 LS
306.519 395.135 LE
393.788 47.52 LS
393.788 51.985 LE
393.788 399.6 LS
393.788 395.135 LE
481.057 47.52 LS
481.057 51.985 LE
481.057 399.6 LS
481.057 395.135 LE
(0.2) 131.981 42.5189 10 /Helvetica STC
(0.4) 219.25 42.5189 10 /Helvetica STC
(0.6) 306.519 42.5189 10 /Helvetica STC
(0.8) 393.788 42.5189 10 /Helvetica STC
(1) 481.057 42.5189 10 /Helvetica STC
[0 3 1 3 1 3 1 3 1 0] 0 setdash
74.88 67.4467 LS
521.28 67.4467 LE
74.88 120.028 LS
521.28 120.028 LE
74.88 172.61 LS
521.28 172.61 LE
74.88 225.191 LS
521.28 225.191 LE
74.88 277.773 LS
521.28 277.773 LE
74.88 330.355 LS
521.28 330.355 LE
74.88 382.936 LS
521.28 382.936 LE
[16 0] 0 setdash
74.88 67.4467 LS
79.348 67.4467 LE
521.28 67.4467 LS
516.812 67.4467 LE
74.88 120.028 LS
79.348 120.028 LE
521.28 120.028 LS
516.812 120.028 LE
74.88 172.61 LS
79.348 172.61 LE
521.28 172.61 LS
516.812 172.61 LE
74.88 225.191 LS
79.348 225.191 LE
521.28 225.191 LS
516.812 225.191 LE
74.88 277.773 LS
79.348 277.773 LE
521.28 277.773 LS
516.812 277.773 LE
74.88 330.355 LS
79.348 330.355 LE
521.28 330.355 LS
516.812 330.355 LE
74.88 382.936 LS
79.348 382.936 LE
521.28 382.936 LS
516.812 382.936 LE
(-3) 69.8755 67.4467 10 /Helvetica SCR
(-2) 69.8755 120.028 10 /Helvetica SCR
(-1) 69.8755 172.61 10 /Helvetica SCR
(0) 69.8755 225.191 10 /Helvetica SCR
(1) 69.8755 277.773 10 /Helvetica SCR
(2) 69.8755 330.355 10 /Helvetica SCR
(3) 69.8755 382.936 10 /Helvetica SCR
1 W
[] 0 setdash
0 0 1 C
74.4336 240.188 LS
74.8192 241.047 L
75.2556 242.018 L
75.6919 242.989 L
76.1283 243.959 L
76.5646 244.928 L
77.001 245.897 L
77.4373 246.865 L
77.8737 247.832 L
78.31 248.798 L
78.7464 249.763 L
79.1827 250.727 L
79.619 251.69 L
80.0554 252.652 L
80.4917 253.613 L
80.9281 254.573 L
81.3644 255.532 L
81.8008 256.489 L
82.2371 257.446 L
82.6735 258.401 L
83.1098 259.354 L
83.5461 260.307 L
83.9825 261.258 L
84.4188 262.207 L
84.8552 263.155 L
85.2915 264.102 L
85.7279 265.047 L
86.1642 265.99 L
86.6006 266.932 L
87.0369 267.872 L
87.4733 268.811 L
87.9096 269.748 L
88.346 270.683 L
88.7823 271.616 L
89.2186 272.547 L
89.655 273.477 L
90.0914 274.405 L
90.5277 275.33 L
90.964 276.254 L
91.4004 277.176 L
91.8367 278.095 L
92.2731 279.013 L
92.7094 279.928 L
93.1458 280.842 L
93.5821 281.753 L
94.0185 282.661 L
94.4548 283.568 L
94.8911 284.472 L
95.3275 285.374 L
95.7638 286.274 L
96.2002 287.171 L
96.6365 288.066 L
97.0729 288.958 L
97.5092 289.848 L
97.9456 290.735 L
98.3819 291.619 L
98.8183 292.501 L
99.2546 293.38 L
99.6909 294.257 L
100.127 295.131 L
100.564 296.002 L
101 296.87 L
101.436 297.736 L
101.873 298.598 L
102.309 299.458 L
102.745 300.315 L
103.182 301.169 L
103.618 302.02 L
104.054 302.867 L
104.491 303.712 L
104.927 304.554 L
105.363 305.392 L
105.8 306.227 L
106.236 307.06 L
106.672 307.888 L
107.109 308.714 L
107.545 309.536 L
107.982 310.355 L
108.418 311.171 L
108.854 311.983 L
109.291 312.792 L
109.727 313.597 L
110.163 314.399 L
110.6 315.198 L
111.036 315.992 L
111.472 316.784 L
111.909 317.571 L
112.345 318.355 L
112.781 319.135 L
113.218 319.912 L
113.654 320.685 L
114.09 321.454 L
114.527 322.219 L
114.963 322.98 L
115.399 323.738 L
115.836 324.492 L
116.272 325.241 L
116.708 325.987 L
117.145 326.729 L
117.581 327.467 L
118.017 328.2 L
118.454 328.93 L
118.89 329.656 L
119.327 330.377 L
119.763 331.095 L
120.199 331.808 L
120.636 332.517 L
121.072 333.221 L
121.508 333.922 L
121.945 334.618 L
122.381 335.31 L
122.817 335.997 L
123.254 336.68 L
123.69 337.359 L
124.126 338.033 L
124.563 338.703 L
124.999 339.368 L
125.435 340.029 L
125.872 340.685 L
126.308 341.337 L
126.744 341.984 L
127.181 342.627 L
127.617 343.265 L
128.053 343.898 L
128.49 344.527 L
128.926 345.15 L
129.362 345.77 L
129.799 346.384 L
130.235 346.993 L
130.672 347.598 L
131.108 348.198 L
131.544 348.793 L
131.981 349.383 L
132.417 349.969 L
132.853 350.549 L
133.29 351.124 L
133.726 351.695 L
134.162 352.26 L
134.599 352.821 L
135.035 353.376 L
135.471 353.926 L
135.908 354.472 L
136.344 355.012 L
136.78 355.547 L
137.217 356.077 L
137.653 356.601 L
138.089 357.121 L
138.526 357.635 L
138.962 358.144 L
139.398 358.648 L
139.835 359.147 L
140.271 359.64 L
140.707 360.128 L
141.144 360.611 L
141.58 361.088 L
142.017 361.56 L
142.453 362.026 L
142.889 362.487 L
143.326 362.943 L
143.762 363.393 L
144.198 363.838 L
144.635 364.278 L
145.071 364.711 L
145.507 365.14 L
145.944 365.563 L
146.38 365.98 L
146.816 366.392 L
147.253 366.798 L
147.689 367.198 L
148.125 367.593 L
148.562 367.983 L
148.998 368.366 L
149.434 368.744 L
149.871 369.117 L
150.307 369.483 L
150.743 369.844 L
151.18 370.2 L
151.616 370.549 L
152.052 370.893 L
152.489 371.231 L
152.925 371.563 L
153.362 371.89 L
153.798 372.211 L
154.234 372.526 L
154.671 372.835 L
155.107 373.138 L
155.543 373.436 L
155.98 373.727 L
156.416 374.013 L
156.852 374.293 L
157.289 374.567 L
157.725 374.835 L
158.161 375.097 L
158.598 375.353 L
159.034 375.604 L
159.47 375.848 L
159.907 376.086 L
160.343 376.319 L
160.779 376.545 L
161.216 376.766 L
161.652 376.98 L
162.088 377.189 L
162.525 377.392 L
162.961 377.588 L
163.397 377.779 L
163.834 377.963 L
164.27 378.142 L
164.707 378.314 L
165.143 378.48 L
165.579 378.641 L
166.016 378.795 L
166.452 378.943 L
166.888 379.085 L
167.325 379.221 L
167.761 379.352 L
168.197 379.475 L
168.634 379.593 L
169.07 379.705 L
169.506 379.811 L
169.943 379.91 L
170.379 380.003 L
170.815 380.091 L
171.252 380.172 L
171.688 380.247 L
172.124 380.316 L
172.561 380.379 L
172.997 380.435 L
173.433 380.486 L
173.87 380.53 L
174.306 380.569 L
174.742 380.601 L
175.179 380.627 L
175.615 380.647 L
176.051 380.661 L
176.488 380.668 L
176.924 380.67 L
177.361 380.665 L
177.797 380.654 L
178.233 380.637 L
178.67 380.614 L
179.106 380.585 L
179.542 380.55 L
179.979 380.508 L
180.415 380.461 L
180.851 380.407 L
181.288 380.347 L
181.724 380.281 L
182.16 380.209 L
182.597 380.131 L
183.033 380.046 L
183.469 379.956 L
183.906 379.859 L
184.342 379.757 L
184.778 379.648 L
185.215 379.533 L
185.651 379.412 L
186.087 379.285 L
186.524 379.152 L
186.96 379.013 L
187.396 378.867 L
187.833 378.716 L
188.269 378.559 L
188.706 378.395 L
189.142 378.226 L
189.578 378.05 L
190.015 377.868 L
190.451 377.681 L
190.887 377.487 L
191.324 377.288 L
191.76 377.082 L
192.196 376.87 L
192.633 376.653 L
193.069 376.429 L
193.505 376.199 L
193.942 375.964 L
194.378 375.722 L
194.814 375.475 L
195.251 375.221 L
195.687 374.962 L
196.123 374.697 L
196.56 374.426 L
196.996 374.149 L
197.432 373.866 L
197.869 373.577 L
198.305 373.283 L
198.741 372.982 L
199.178 372.676 L
199.614 372.364 L
200.051 372.046 L
200.487 371.722 L
200.923 371.393 L
201.36 371.057 L
201.796 370.716 L
202.232 370.369 L
202.669 370.017 L
203.105 369.659 L
203.541 369.295 L
203.978 368.925 L
204.414 368.55 L
204.85 368.169 L
205.287 367.782 L
205.723 367.39 L
206.159 366.992 L
206.596 366.589 L
207.032 366.18 L
207.468 365.765 L
207.905 365.345 L
208.341 364.919 L
208.777 364.488 L
209.214 364.051 L
209.65 363.609 L
210.086 363.161 L
210.523 362.708 L
210.959 362.25 L
211.396 361.786 L
211.832 361.317 L
212.268 360.842 L
212.705 360.362 L
213.141 359.876 L
213.577 359.386 L
214.014 358.89 L
214.45 358.388 L
214.886 357.882 L
215.323 357.37 L
215.759 356.853 L
216.195 356.331 L
216.632 355.803 L
217.068 355.271 L
217.504 354.733 L
217.941 354.191 L
218.377 353.643 L
218.813 353.09 L
219.25 352.532 L
219.686 351.969 L
220.122 351.401 L
220.559 350.828 L
220.995 350.25 L
221.431 349.667 L
221.868 349.079 L
222.304 348.486 L
222.741 347.889 L
223.177 347.286 L
223.613 346.679 L
224.05 346.067 L
224.486 345.45 L
224.922 344.829 L
225.359 344.202 L
225.795 343.571 L
226.231 342.936 L
226.668 342.295 L
227.104 341.651 L
227.54 341.001 L
227.977 340.347 L
228.413 339.688 L
228.849 339.025 L
229.286 338.357 L
229.722 337.685 L
230.158 337.009 L
230.595 336.328 L
231.031 335.642 L
231.467 334.953 L
231.904 334.259 L
232.34 333.56 L
232.776 332.858 L
233.213 332.151 L
233.649 331.44 L
234.086 330.724 L
234.522 330.005 L
234.958 329.281 L
235.395 328.554 L
235.831 327.822 L
236.267 327.086 L
236.704 326.346 L
237.14 325.602 L
237.576 324.854 L
238.013 324.103 L
238.449 323.347 L
238.885 322.587 L
239.322 321.824 L
239.758 321.057 L
240.194 320.286 L
240.631 319.511 L
241.067 318.733 L
241.503 317.95 L
241.94 317.165 L
242.376 316.375 L
242.812 315.582 L
243.249 314.785 L
243.685 313.985 L
244.121 313.182 L
244.558 312.374 L
244.994 311.564 L
245.431 310.75 L
245.867 309.933 L
246.303 309.112 L
246.74 308.288 L
247.176 307.46 L
247.612 306.63 L
248.049 305.796 L
248.485 304.959 L
248.921 304.119 L
249.358 303.276 L
249.794 302.43 L
250.23 301.58 L
250.667 300.728 L
251.103 299.872 L
251.539 299.014 L
251.976 298.153 L
252.412 297.289 L
252.848 296.422 L
253.285 295.552 L
253.721 294.68 L
254.157 293.804 L
254.594 292.926 L
255.03 292.046 L
255.466 291.163 L
255.903 290.277 L
256.339 289.388 L
256.776 288.497 L
257.212 287.604 L
257.648 286.708 L
258.085 285.809 L
258.521 284.909 L
258.957 284.005 L
259.394 283.1 L
259.83 282.192 L
260.266 281.282 L
260.703 280.37 L
261.139 279.456 L
261.575 278.539 L
262.012 277.62 L
262.448 276.7 L
262.884 275.777 L
263.321 274.852 L
263.757 273.925 L
264.193 272.997 L
264.63 272.066 L
265.066 271.134 L
265.502 270.2 L
265.939 269.264 L
266.375 268.326 L
266.811 267.387 L
267.248 266.446 L
267.684 265.503 L
268.121 264.559 L
268.557 263.613 L
268.993 262.665 L
269.43 261.717 L
269.866 260.766 L
270.302 259.815 L
270.739 258.862 L
271.175 257.907 L
271.611 256.952 L
272.048 255.995 L
272.484 255.037 L
272.92 254.077 L
273.357 253.117 L
273.793 252.155 L
274.229 251.193 L
274.666 250.229 L
275.102 249.264 L
275.538 248.299 L
275.975 247.332 L
276.411 246.365 L
276.847 245.397 L
277.284 244.428 L
277.72 243.458 L
278.156 242.487 L
278.593 241.516 L
279.029 240.544 L
279.465 239.572 L
279.902 238.599 L
280.338 237.625 L
280.775 236.651 L
281.211 235.677 L
281.647 234.702 L
282.084 233.727 L
282.52 232.751 L
282.956 231.775 L
283.393 230.799 L
283.829 229.823 L
284.265 228.846 L
284.702 227.87 L
285.138 226.893 L
285.574 225.916 L
286.011 224.939 L
286.447 223.962 L
286.883 222.985 L
287.32 222.009 L
287.756 221.032 L
288.192 220.055 L
288.629 219.079 L
289.065 218.103 L
289.501 217.127 L
289.938 216.152 L
290.374 215.177 L
290.81 214.202 L
291.247 213.228 L
291.683 212.254 L
292.12 211.281 L
292.556 210.308 L
292.992 209.336 L
293.429 208.365 L
293.865 207.394 L
294.301 206.424 L
294.738 205.454 L
295.174 204.486 L
295.61 203.518 L
296.047 202.551 L
296.483 201.585 L
296.919 200.62 L
297.356 199.656 L
297.792 198.693 L
298.228 197.731 L
298.665 196.77 L
299.101 195.81 L
299.537 194.851 L
299.974 193.894 L
300.41 192.937 L
300.846 191.982 L
301.283 191.029 L
301.719 190.076 L
302.155 189.125 L
302.592 188.176 L
303.028 187.228 L
303.465 186.281 L
303.901 185.336 L
304.337 184.393 L
304.774 183.451 L
305.21 182.511 L
305.646 181.572 L
306.083 180.635 L
306.519 179.7 L
306.955 178.767 L
307.392 177.836 L
307.828 176.906 L
308.264 175.978 L
308.701 175.053 L
309.137 174.129 L
309.573 173.207 L
310.01 172.288 L
310.446 171.37 L
310.882 170.455 L
311.319 169.541 L
311.755 168.63 L
312.191 167.721 L
312.628 166.815 L
313.064 165.911 L
313.5 165.009 L
313.937 164.109 L
314.373 163.212 L
314.81 162.317 L
315.246 161.425 L
315.682 160.535 L
316.119 159.648 L
316.555 158.764 L
316.991 157.882 L
317.428 157.002 L
317.864 156.126 L
318.3 155.252 L
318.737 154.381 L
319.173 153.513 L
319.609 152.647 L
320.046 151.785 L
320.482 150.925 L
320.918 150.068 L
321.355 149.214 L
321.791 148.363 L
322.227 147.516 L
322.664 146.671 L
323.1 145.829 L
323.536 144.991 L
323.973 144.156 L
324.409 143.323 L
324.845 142.495 L
325.282 141.669 L
325.718 140.847 L
326.155 140.028 L
326.591 139.212 L
327.027 138.4 L
327.464 137.591 L
327.9 136.786 L
328.336 135.984 L
328.773 135.185 L
329.209 134.391 L
329.645 133.599 L
330.082 132.812 L
330.518 132.028 L
330.954 131.248 L
331.391 130.471 L
331.827 129.698 L
332.263 128.929 L
332.7 128.164 L
333.136 127.403 L
333.572 126.645 L
334.009 125.891 L
334.445 125.142 L
334.881 124.396 L
335.318 123.654 L
335.754 122.916 L
336.19 122.182 L
336.627 121.453 L
337.063 120.727 L
337.5 120.006 L
337.936 119.288 L
338.372 118.575 L
338.809 117.866 L
339.245 117.162 L
339.681 116.461 L
340.118 115.765 L
340.554 115.073 L
340.99 114.386 L
341.427 113.703 L
341.863 113.024 L
342.299 112.35 L
342.736 111.68 L
343.172 111.015 L
343.608 110.354 L
344.045 109.697 L
344.481 109.046 L
344.917 108.399 L
345.354 107.756 L
345.79 107.118 L
346.226 106.485 L
346.663 105.856 L
347.099 105.232 L
347.535 104.613 L
347.972 103.999 L
348.408 103.389 L
348.845 102.785 L
349.281 102.185 L
349.717 101.59 L
350.154 101 L
350.59 100.414 L
351.026 99.8339 L
351.463 99.2585 L
351.899 98.6881 L
352.335 98.1226 L
352.772 97.5622 L
353.208 97.0068 L
353.644 96.4565 L
354.081 95.9112 L
354.517 95.3711 L
354.953 94.8361 L
355.39 94.3062 L
355.826 93.7815 L
356.262 93.262 L
356.699 92.7477 L
357.135 92.2386 L
357.571 91.7348 L
358.008 91.2363 L
358.444 90.743 L
358.88 90.255 L
359.317 89.7724 L
359.753 89.2951 L
360.189 88.8232 L
360.626 88.3566 L
361.062 87.8955 L
361.499 87.4398 L
361.935 86.9895 L
362.371 86.5447 L
362.808 86.1053 L
363.244 85.6715 L
363.68 85.2431 L
364.117 84.8203 L
364.553 84.403 L
364.989 83.9913 L
365.426 83.5851 L
365.862 83.1846 L
366.298 82.7896 L
366.735 82.4003 L
367.171 82.0166 L
367.607 81.6385 L
368.044 81.2662 L
368.48 80.8995 L
368.916 80.5385 L
369.353 80.1832 L
369.789 79.8336 L
370.225 79.4898 L
370.662 79.1517 L
371.098 78.8194 L
371.534 78.4929 L
371.971 78.1721 L
372.407 77.8572 L
372.844 77.5481 L
373.28 77.2448 L
373.716 76.9474 L
374.153 76.6558 L
374.589 76.37 L
375.025 76.0902 L
375.462 75.8162 L
375.898 75.5481 L
376.334 75.286 L
376.771 75.0297 L
377.207 74.7794 L
377.643 74.535 L
378.08 74.2966 L
378.516 74.0641 L
378.952 73.8376 L
379.389 73.6171 L
379.825 73.4025 L
380.261 73.194 L
380.698 72.9914 L
381.134 72.7948 L
381.57 72.6043 L
382.007 72.4198 L
382.443 72.2413 L
382.879 72.0689 L
383.316 71.9025 L
383.752 71.7422 L
384.189 71.5879 L
384.625 71.4396 L
385.061 71.2975 L
385.498 71.1614 L
385.934 71.0314 L
386.37 70.9075 L
386.807 70.7897 L
387.243 70.678 L
387.679 70.5723 L
388.116 70.4728 L
388.552 70.3794 L
388.988 70.2921 L
389.425 70.2109 L
389.861 70.1359 L
390.297 70.0669 L
390.734 70.0041 L
391.17 69.9474 L
391.606 69.8968 L
392.043 69.8524 L
392.479 69.8141 L
392.915 69.782 L
393.352 69.7559 L
393.788 69.736 L
394.224 69.7223 L
394.661 69.7146 L
395.097 69.7132 L
395.534 69.7178 L
395.97 69.7286 L
396.406 69.7455 L
396.843 69.7686 L
397.279 69.7978 L
397.715 69.8331 L
398.152 69.8746 L
398.588 69.9222 L
399.024 69.9759 L
399.461 70.0358 L
399.897 70.1018 L
400.333 70.1739 L
400.77 70.2521 L
401.206 70.3365 L
401.642 70.4269 L
402.079 70.5235 L
402.515 70.6262 L
402.951 70.7349 L
403.388 70.8498 L
403.824 70.9708 L
404.26 71.0978 L
404.697 71.231 L
405.133 71.3702 L
405.569 71.5155 L
406.006 71.6668 L
406.442 71.8242 L
406.878 71.9877 L
407.315 72.1572 L
407.751 72.3328 L
408.188 72.5144 L
408.624 72.702 L
409.06 72.8957 L
409.497 73.0953 L
409.933 73.301 L
410.369 73.5126 L
410.806 73.7303 L
411.242 73.9539 L
411.678 74.1835 L
412.115 74.419 L
412.551 74.6606 L
412.987 74.908 L
413.424 75.1614 L
413.86 75.4207 L
414.296 75.6859 L
414.733 75.957 L
415.169 76.2341 L
415.605 76.517 L
416.042 76.8057 L
416.478 77.1003 L
416.914 77.4008 L
417.351 77.7071 L
417.787 78.0192 L
418.224 78.3372 L
418.66 78.6609 L
419.096 78.9904 L
419.533 79.3257 L
419.969 79.6667 L
420.405 80.0135 L
420.842 80.3661 L
421.278 80.7243 L
421.714 81.0882 L
422.151 81.4579 L
422.587 81.8332 L
423.023 82.2142 L
423.46 82.6008 L
423.896 82.993 L
424.332 83.3909 L
424.769 83.7943 L
425.205 84.2034 L
425.641 84.618 L
426.078 85.0381 L
426.514 85.4638 L
426.95 85.895 L
427.387 86.3317 L
427.823 86.7739 L
428.259 87.2215 L
428.696 87.6746 L
429.132 88.1331 L
429.569 88.5971 L
430.005 89.0664 L
430.441 89.5411 L
430.878 90.0211 L
431.314 90.5065 L
431.75 90.9972 L
432.187 91.4932 L
432.623 91.9945 L
433.059 92.5011 L
433.496 93.0128 L
433.932 93.5298 L
434.368 94.052 L
434.805 94.5794 L
435.241 95.1119 L
435.677 95.6496 L
436.114 96.1924 L
436.55 96.7402 L
436.986 97.2932 L
437.423 97.8512 L
437.859 98.4142 L
438.295 98.9822 L
438.732 99.5552 L
439.168 100.133 L
439.604 100.716 L
440.041 101.304 L
440.477 101.897 L
440.913 102.494 L
441.35 103.097 L
441.786 103.704 L
442.223 104.316 L
442.659 104.933 L
443.095 105.554 L
443.532 106.181 L
443.968 106.812 L
444.404 107.447 L
444.841 108.087 L
445.277 108.732 L
445.713 109.382 L
446.15 110.036 L
446.586 110.695 L
447.022 111.358 L
447.459 112.025 L
447.895 112.698 L
448.331 113.374 L
448.768 114.055 L
449.204 114.74 L
449.64 115.43 L
450.077 116.124 L
450.513 116.823 L
450.949 117.525 L
451.386 118.232 L
451.822 118.943 L
452.258 119.659 L
452.695 120.378 L
453.131 121.102 L
453.568 121.829 L
454.004 122.561 L
454.44 123.297 L
454.877 124.037 L
455.313 124.781 L
455.749 125.529 L
456.186 126.28 L
456.622 127.036 L
457.058 127.796 L
457.495 128.559 L
457.931 129.326 L
458.367 130.097 L
458.804 130.872 L
459.24 131.65 L
459.676 132.433 L
460.113 133.218 L
460.549 134.008 L
460.985 134.801 L
461.422 135.597 L
461.858 136.398 L
462.294 137.201 L
462.731 138.008 L
463.167 138.819 L
463.603 139.633 L
464.04 140.45 L
464.476 141.271 L
464.913 142.095 L
465.349 142.922 L
465.785 143.753 L
466.222 144.587 L
466.658 145.424 L
467.094 146.264 L
467.531 147.107 L
467.967 147.953 L
468.403 148.803 L
468.84 149.655 L
469.276 150.51 L
469.712 151.369 L
470.149 152.23 L
470.585 153.094 L
471.021 153.961 L
471.458 154.831 L
471.894 155.703 L
472.33 156.578 L
472.767 157.456 L
473.203 158.337 L
473.639 159.22 L
474.076 160.106 L
474.512 160.995 L
474.948 161.886 L
475.385 162.779 L
475.821 163.675 L
476.258 164.574 L
476.694 165.474 L
477.13 166.378 L
477.567 167.283 L
478.003 168.191 L
478.439 169.101 L
478.876 170.013 L
479.312 170.927 L
479.748 171.844 L
480.185 172.763 L
480.621 173.683 L
481.057 174.606 LE
1 0 0 C
173.924 380.67 LS
179.924 380.67 LE
176.924 383.67 LS
176.924 377.67 LE
174.803 382.791 LS
179.046 378.548 LE
174.803 378.548 LS
179.046 382.791 LE
0 0 0 C
(MAX 2.956897) 220.559 380.67 10 /Helvetica SCL
1 0 0 C
392.097 69.7132 LS
398.097 69.7132 LE
395.097 72.7132 LS
395.097 66.7132 LE
392.976 71.8345 LS
397.218 67.5918 LE
392.976 67.5918 LS
397.218 71.8345 LE
0 0 0 C
(MIN -2.956897) 438.732 69.7132 10 /Helvetica SCL
(Periodicni del modela) 298.08 409.6 10 /Helvetica SBC
grestore
showpage
cleartomark
%%PageTrailer
%%Trailer
end
%%EOF
