%!PS-Adobe-3.0 EPSF-3.0
%%Title: glps_renderer figure
%%Creator: GL2PS 1.3.9, (C) 1999-2015 C. Geuzaine
%%For: Octave
%%CreationDate: Mon Mar 14 01:56:16 2016
%%LanguageLevel: 3
%%DocumentData: Clean7Bit
%%Pages: 1
%%BoundingBox: 0 0 576 432
%%EndComments
%%BeginProlog
/gl2psdict 64 dict def gl2psdict begin
0 setlinecap 0 setlinejoin
/tryPS3shading false def % set to false to force subdivision
/rThreshold 0.064 def % red component subdivision threshold
/gThreshold 0.034 def % green component subdivision threshold
/bThreshold 0.1 def % blue component subdivision threshold
/BD { bind def } bind def
/C  { setrgbcolor } BD
/G  { 0.082 mul exch 0.6094 mul add exch 0.3086 mul add neg 1.0 add setgray } BD
/W  { setlinewidth } BD
/FC { findfont exch /SH exch def SH scalefont setfont } BD
/SW { dup stringwidth pop } BD
/S  { FC moveto show } BD
/SBC{ FC moveto SW -2 div 0 rmoveto show } BD
/SBR{ FC moveto SW neg 0 rmoveto show } BD
/SCL{ FC moveto 0 SH -2 div rmoveto show } BD
/SCC{ FC moveto SW -2 div SH -2 div rmoveto show } BD
/SCR{ FC moveto SW neg SH -2 div rmoveto show } BD
/STL{ FC moveto 0 SH neg rmoveto show } BD
/STC{ FC moveto SW -2 div SH neg rmoveto show } BD
/STR{ FC moveto SW neg SH neg rmoveto show } BD
/FCT { FC translate 0 0 } BD
/SR  { gsave FCT moveto rotate show grestore } BD
/SBCR{ gsave FCT moveto rotate SW -2 div 0 rmoveto show grestore } BD
/SBRR{ gsave FCT moveto rotate SW neg 0 rmoveto show grestore } BD
/SCLR{ gsave FCT moveto rotate 0 SH -2 div rmoveto show grestore} BD
/SCCR{ gsave FCT moveto rotate SW -2 div SH -2 div rmoveto show grestore} BD
/SCRR{ gsave FCT moveto rotate SW neg SH -2 div rmoveto show grestore} BD
/STLR{ gsave FCT moveto rotate 0 SH neg rmoveto show grestore } BD
/STCR{ gsave FCT moveto rotate SW -2 div SH neg rmoveto show grestore } BD
/STRR{ gsave FCT moveto rotate SW neg SH neg rmoveto show grestore } BD
/P  { newpath 0.0 360.0 arc closepath fill } BD
/LS { newpath moveto } BD
/L  { lineto } BD
/LE { lineto stroke } BD
/T  { newpath moveto lineto lineto closepath fill } BD
/STshfill {
      /b1 exch def /g1 exch def /r1 exch def /y1 exch def /x1 exch def
      /b2 exch def /g2 exch def /r2 exch def /y2 exch def /x2 exch def
      /b3 exch def /g3 exch def /r3 exch def /y3 exch def /x3 exch def
      gsave << /ShadingType 4 /ColorSpace [/DeviceRGB]
      /DataSource [ 0 x1 y1 r1 g1 b1 0 x2 y2 r2 g2 b2 0 x3 y3 r3 g3 b3 ] >>
      shfill grestore } BD
/Tm { 3 -1 roll 8 -1 roll 13 -1 roll add add 3 div
      3 -1 roll 7 -1 roll 11 -1 roll add add 3 div
      3 -1 roll 6 -1 roll 9 -1 roll add add 3 div C T } BD
/STsplit {
      4 index 15 index add 0.5 mul
      4 index 15 index add 0.5 mul
      4 index 15 index add 0.5 mul
      4 index 15 index add 0.5 mul
      4 index 15 index add 0.5 mul
      5 copy 5 copy 25 15 roll
      9 index 30 index add 0.5 mul
      9 index 30 index add 0.5 mul
      9 index 30 index add 0.5 mul
      9 index 30 index add 0.5 mul
      9 index 30 index add 0.5 mul
      5 copy 5 copy 35 5 roll 25 5 roll 15 5 roll
      4 index 10 index add 0.5 mul
      4 index 10 index add 0.5 mul
      4 index 10 index add 0.5 mul
      4 index 10 index add 0.5 mul
      4 index 10 index add 0.5 mul
      5 copy 5 copy 40 5 roll 25 5 roll 15 5 roll 25 5 roll
      STnoshfill STnoshfill STnoshfill STnoshfill } BD
/STnoshfill {
      2 index 8 index sub abs rThreshold gt
      { STsplit }
      { 1 index 7 index sub abs gThreshold gt
        { STsplit }
        { dup 6 index sub abs bThreshold gt
          { STsplit }
          { 2 index 13 index sub abs rThreshold gt
            { STsplit }
            { 1 index 12 index sub abs gThreshold gt
              { STsplit }
              { dup 11 index sub abs bThreshold gt
                { STsplit }
                { 7 index 13 index sub abs rThreshold gt
                  { STsplit }
                  { 6 index 12 index sub abs gThreshold gt
                    { STsplit }
                    { 5 index 11 index sub abs bThreshold gt
                      { STsplit }
                      { Tm }
                      ifelse }
                    ifelse }
                  ifelse }
                ifelse }
              ifelse }
            ifelse }
          ifelse }
        ifelse }
      ifelse } BD
tryPS3shading
{ /shfill where
  { /ST { STshfill } BD }
  { /ST { STnoshfill } BD }
  ifelse }
{ /ST { STnoshfill } BD }
ifelse
end
%%EndProlog
%%BeginSetup
/DeviceRGB setcolorspace
gl2psdict begin
%%EndSetup
%%Page: 1 1
%%BeginPageSetup
%%EndPageSetup
mark
gsave
1.0 1.0 scale
1 1 1 C
74.8784 399.6 521.279 47.52 74.8784 47.52 T
74.8784 399.6 521.279 399.6 521.279 47.52 T
77.025 397.455 184.919 357.077 77.025 357.077 T
77.025 397.455 184.919 397.455 184.919 357.077 T
0.5 W
[16 0] 0 setdash
0 0 0 C
74.8784 47.52 LS
521.279 47.52 LE
74.8784 399.6 LS
521.279 399.6 LE
74.8784 47.52 LS
74.8784 399.6 LE
521.279 47.52 LS
521.279 399.6 LE
139.57 47.52 LS
139.57 399.6 LE
250.143 47.52 LS
250.143 399.6 LE
360.716 47.52 LS
360.716 399.6 LE
471.289 47.52 LS
471.289 399.6 LE
139.57 47.52 LS
139.57 51.985 LE
139.57 399.6 LS
139.57 395.135 LE
250.143 47.52 LS
250.143 51.985 LE
250.143 399.6 LS
250.143 395.135 LE
360.716 47.52 LS
360.716 51.985 LE
360.716 399.6 LS
360.716 395.135 LE
471.289 47.52 LS
471.289 51.985 LE
471.289 399.6 LS
471.289 395.135 LE
(1980) 139.571 42.5189 10 /Helvetica STC
(1990) 250.144 42.5189 10 /Helvetica STC
(2000) 360.718 42.5189 10 /Helvetica STC
(2010) 471.291 42.5189 10 /Helvetica STC
[0 3 1 3 1 3 1 3 1 0] 0 setdash
95.3416 47.52 LS
95.3416 399.6 LE
117.455 47.52 LS
117.455 399.6 LE
161.684 47.52 LS
161.684 399.6 LE
183.799 47.52 LS
183.799 399.6 LE
205.915 47.52 LS
205.915 399.6 LE
228.028 47.52 LS
228.028 399.6 LE
272.259 47.52 LS
272.259 399.6 LE
294.372 47.52 LS
294.372 399.6 LE
316.488 47.52 LS
316.488 399.6 LE
338.601 47.52 LS
338.601 399.6 LE
382.832 47.52 LS
382.832 399.6 LE
404.945 47.52 LS
404.945 399.6 LE
427.061 47.52 LS
427.061 399.6 LE
449.176 47.52 LS
449.176 399.6 LE
493.405 47.52 LS
493.405 399.6 LE
515.518 47.52 LS
515.518 399.6 LE
[16 0] 0 setdash
74.8784 95.701 LS
521.279 95.701 LE
74.8784 171.007 LS
521.279 171.007 LE
74.8784 246.313 LS
521.279 246.313 LE
74.8784 321.619 LS
521.279 321.619 LE
74.8784 396.925 LS
521.279 396.925 LE
74.8784 95.701 LS
79.3477 95.701 LE
521.279 95.701 LS
516.81 95.701 LE
74.8784 171.007 LS
79.3477 171.007 LE
521.279 171.007 LS
516.81 171.007 LE
74.8784 246.313 LS
79.3477 246.313 LE
521.279 246.313 LS
516.81 246.313 LE
74.8784 321.619 LS
79.3477 321.619 LE
521.279 321.619 LS
516.81 321.619 LE
74.8784 396.925 LS
79.3477 396.925 LE
521.279 396.925 LS
516.81 396.925 LE
(1) 69.8757 95.701 10 /Helvetica SCR
(1.5) 69.8757 171.007 10 /Helvetica SCR
(2) 69.8757 246.313 10 /Helvetica SCR
(2.5) 69.8757 321.619 10 /Helvetica SCR
(3) 69.8757 396.925 10 /Helvetica SCR
[0 3 1 3 1 3 1 3 1 0] 0 setdash
74.8784 50.5174 LS
521.279 50.5174 LE
74.8784 65.5786 LS
521.279 65.5786 LE
74.8784 80.6398 LS
521.279 80.6398 LE
74.8784 110.762 LS
521.279 110.762 LE
74.8784 125.823 LS
521.279 125.823 LE
74.8784 140.885 LS
521.279 140.885 LE
74.8784 155.946 LS
521.279 155.946 LE
74.8784 186.068 LS
521.279 186.068 LE
74.8784 201.129 LS
521.279 201.129 LE
74.8784 216.19 LS
521.279 216.19 LE
74.8784 231.252 LS
521.279 231.252 LE
74.8784 261.374 LS
521.279 261.374 LE
74.8784 276.435 LS
521.279 276.435 LE
74.8784 291.496 LS
521.279 291.496 LE
74.8784 306.558 LS
521.279 306.558 LE
74.8784 336.68 LS
521.279 336.68 LE
74.8784 351.741 LS
521.279 351.741 LE
74.8784 366.802 LS
521.279 366.802 LE
74.8784 381.864 LS
521.279 381.864 LE
(leto) 298.08 31.5189 10 /Helvetica STC
(prirastek ppm CO2) 90 50.8749 223.56 10 /Helvetica SBCR
[] 0 setdash
0 0 1 C
84.2827 208.907 LS
95.3416 61.8738 L
106.398 208.396 L
117.455 194.787 L
128.514 139.745 L
139.57 255.504 L
150.627 143.423 L
161.684 125.403 L
172.742 198.969 L
183.799 153.259 L
194.856 205.13 L
205.915 140.405 L
216.971 216.081 L
228.028 308.281 L
239.087 171.167 L
250.143 136.512 L
261.2 123.751 L
272.259 72.2672 L
283.315 54.3091 L
294.372 199.689 L
305.429 241.607 L
316.488 218.768 L
327.544 110.419 L
338.601 393.945 L
349.66 190.095 L
360.716 131.165 L
371.773 176.172 L
382.832 267.026 L
393.888 337.078 L
404.945 221.674 L
416.004 290.974 L
427.061 242.435 L
438.117 231.21 L
449.176 195.961 L
460.233 228.633 L
471.289 313.08 L
482.346 218.039 L
493.405 276.624 L
504.461 341.835 LE
87.2845 208.907 LS
86.7116 207.143 L
85.2116 206.054 L
83.3575 206.054 L
81.8575 207.143 L
81.2845 208.907 L
81.8575 210.67 L
83.3575 211.76 L
85.2116 211.76 L
86.7116 210.67 L
87.2845 208.907 LE
98.3419 61.8738 LS
97.7689 60.1105 L
96.2689 59.0206 L
94.4148 59.0206 L
92.9148 60.1105 L
92.3418 61.8738 L
92.9148 63.6371 L
94.4148 64.727 L
96.2689 64.727 L
97.7689 63.6371 L
98.3419 61.8738 LE
109.399 208.396 LS
108.826 206.632 L
107.326 205.543 L
105.472 205.543 L
103.972 206.632 L
103.399 208.396 L
103.972 210.159 L
105.472 211.249 L
107.326 211.249 L
108.826 210.159 L
109.399 208.396 LE
120.456 194.787 LS
119.884 193.023 L
118.384 191.934 L
116.529 191.934 L
115.029 193.023 L
114.456 194.787 L
115.029 196.55 L
116.529 197.64 L
118.384 197.64 L
119.884 196.55 L
120.456 194.787 LE
131.514 139.745 LS
130.941 137.982 L
129.441 136.892 L
127.587 136.892 L
126.087 137.982 L
125.514 139.745 L
126.087 141.509 L
127.587 142.598 L
129.441 142.598 L
130.941 141.509 L
131.514 139.745 LE
142.571 255.504 LS
141.998 253.741 L
140.498 252.651 L
138.644 252.651 L
137.144 253.741 L
136.571 255.504 L
137.144 257.268 L
138.644 258.357 L
140.498 258.357 L
141.998 257.268 L
142.571 255.504 LE
153.628 143.423 LS
153.056 141.659 L
151.556 140.57 L
149.701 140.57 L
148.201 141.659 L
147.628 143.423 L
148.201 145.186 L
149.701 146.276 L
151.556 146.276 L
153.056 145.186 L
153.628 143.423 LE
164.686 125.403 LS
164.113 123.639 L
162.613 122.549 L
160.759 122.549 L
159.259 123.639 L
158.686 125.403 L
159.259 127.166 L
160.759 128.256 L
162.613 128.256 L
164.113 127.166 L
164.686 125.403 LE
175.743 198.969 LS
175.17 197.205 L
173.67 196.116 L
171.816 196.116 L
170.316 197.205 L
169.743 198.969 L
170.316 200.732 L
171.816 201.822 L
173.67 201.822 L
175.17 200.732 L
175.743 198.969 LE
186.8 153.259 LS
186.227 151.496 L
184.727 150.406 L
182.873 150.406 L
181.373 151.496 L
180.8 153.259 L
181.373 155.022 L
182.873 156.112 L
184.727 156.112 L
186.227 155.022 L
186.8 153.259 LE
197.858 205.13 LS
197.285 203.367 L
195.785 202.277 L
193.931 202.277 L
192.431 203.367 L
191.858 205.13 L
192.431 206.893 L
193.931 207.983 L
195.785 207.983 L
197.285 206.893 L
197.858 205.13 LE
208.915 140.405 LS
208.342 138.642 L
206.842 137.552 L
204.988 137.552 L
203.488 138.642 L
202.915 140.405 L
203.488 142.169 L
204.988 143.258 L
206.842 143.258 L
208.342 142.169 L
208.915 140.405 LE
219.972 216.081 LS
219.399 214.318 L
217.899 213.228 L
216.045 213.228 L
214.545 214.318 L
213.972 216.081 L
214.545 217.845 L
216.045 218.935 L
217.899 218.935 L
219.399 217.845 L
219.972 216.081 LE
231.03 308.281 LS
230.457 306.518 L
228.957 305.428 L
227.103 305.428 L
225.603 306.518 L
225.03 308.281 L
225.603 310.044 L
227.103 311.134 L
228.957 311.134 L
230.457 310.044 L
231.03 308.281 LE
242.087 171.167 LS
241.514 169.404 L
240.014 168.314 L
238.16 168.314 L
236.66 169.404 L
236.087 171.167 L
236.66 172.93 L
238.16 174.02 L
240.014 174.02 L
241.514 172.93 L
242.087 171.167 LE
253.144 136.512 LS
252.571 134.749 L
251.071 133.659 L
249.217 133.659 L
247.717 134.749 L
247.144 136.512 L
247.717 138.275 L
249.217 139.365 L
251.071 139.365 L
252.571 138.275 L
253.144 136.512 LE
264.202 123.751 LS
263.629 121.988 L
262.129 120.898 L
260.275 120.898 L
258.775 121.988 L
258.202 123.751 L
258.775 125.515 L
260.275 126.604 L
262.129 126.604 L
263.629 125.515 L
264.202 123.751 LE
275.259 72.2672 LS
274.686 70.5038 L
273.186 69.4141 L
271.332 69.4141 L
269.832 70.5038 L
269.259 72.2672 L
269.832 74.0306 L
271.332 75.1204 L
273.186 75.1204 L
274.686 74.0306 L
275.259 72.2672 LE
286.316 54.3091 LS
285.743 52.5457 L
284.243 51.4559 L
282.389 51.4559 L
280.889 52.5457 L
280.316 54.3091 L
280.889 56.0724 L
282.389 57.1622 L
284.243 57.1622 L
285.743 56.0724 L
286.316 54.3091 LE
297.374 199.689 LS
296.801 197.925 L
295.301 196.835 L
293.447 196.835 L
291.947 197.925 L
291.374 199.689 L
291.947 201.452 L
293.447 202.542 L
295.301 202.542 L
296.801 201.452 L
297.374 199.689 LE
308.431 241.607 LS
307.858 239.844 L
306.358 238.754 L
304.504 238.754 L
303.004 239.844 L
302.431 241.607 L
303.004 243.371 L
304.504 244.461 L
306.358 244.461 L
307.858 243.371 L
308.431 241.607 LE
319.488 218.768 LS
318.915 217.005 L
317.415 215.915 L
315.561 215.915 L
314.061 217.005 L
313.488 218.768 L
314.061 220.531 L
315.561 221.621 L
317.415 221.621 L
318.915 220.531 L
319.488 218.768 LE
330.546 110.419 LS
329.973 108.656 L
328.473 107.566 L
326.619 107.566 L
325.119 108.656 L
324.546 110.419 L
325.119 112.182 L
326.619 113.272 L
328.473 113.272 L
329.973 112.182 L
330.546 110.419 LE
341.603 393.945 LS
341.03 392.181 L
339.53 391.091 L
337.676 391.091 L
336.176 392.181 L
335.603 393.945 L
336.176 395.708 L
337.676 396.798 L
339.53 396.798 L
341.03 395.708 L
341.603 393.945 LE
352.66 190.095 LS
352.087 188.332 L
350.587 187.242 L
348.733 187.242 L
347.233 188.332 L
346.66 190.095 L
347.233 191.858 L
348.733 192.948 L
350.587 192.948 L
352.087 191.858 L
352.66 190.095 LE
363.718 131.165 LS
363.145 129.401 L
361.645 128.312 L
359.791 128.312 L
358.291 129.401 L
357.718 131.165 L
358.291 132.928 L
359.791 134.018 L
361.645 134.018 L
363.145 132.928 L
363.718 131.165 LE
374.775 176.172 LS
374.202 174.408 L
372.702 173.319 L
370.848 173.319 L
369.348 174.408 L
368.775 176.172 L
369.348 177.935 L
370.848 179.025 L
372.702 179.025 L
374.202 177.935 L
374.775 176.172 LE
385.832 267.026 LS
385.259 265.263 L
383.759 264.173 L
381.905 264.173 L
380.405 265.263 L
379.832 267.026 L
380.405 268.789 L
381.905 269.879 L
383.759 269.879 L
385.259 268.789 L
385.832 267.026 LE
396.89 337.078 LS
396.317 335.315 L
394.817 334.225 L
392.963 334.225 L
391.463 335.315 L
390.89 337.078 L
391.463 338.842 L
392.963 339.932 L
394.817 339.932 L
396.317 338.842 L
396.89 337.078 LE
407.947 221.674 LS
407.374 219.911 L
405.874 218.821 L
404.02 218.821 L
402.52 219.911 L
401.947 221.674 L
402.52 223.437 L
404.02 224.527 L
405.874 224.527 L
407.374 223.437 L
407.947 221.674 LE
419.004 290.974 LS
418.431 289.211 L
416.931 288.121 L
415.077 288.121 L
413.577 289.211 L
413.004 290.974 L
413.577 292.738 L
415.077 293.828 L
416.931 293.828 L
418.431 292.738 L
419.004 290.974 LE
430.062 242.435 LS
429.489 240.672 L
427.989 239.582 L
426.135 239.582 L
424.635 240.672 L
424.062 242.435 L
424.635 244.198 L
426.135 245.288 L
427.989 245.288 L
429.489 244.198 L
430.062 242.435 LE
441.119 231.21 LS
440.546 229.447 L
439.046 228.357 L
437.192 228.357 L
435.692 229.447 L
435.119 231.21 L
435.692 232.974 L
437.192 234.064 L
439.046 234.064 L
440.546 232.974 L
441.119 231.21 LE
452.176 195.961 LS
451.603 194.198 L
450.103 193.108 L
448.249 193.108 L
446.749 194.198 L
446.176 195.961 L
446.749 197.725 L
448.249 198.814 L
450.103 198.814 L
451.603 197.725 L
452.176 195.961 LE
463.234 228.633 LS
462.661 226.87 L
461.161 225.78 L
459.307 225.78 L
457.807 226.87 L
457.234 228.633 L
457.807 230.397 L
459.307 231.487 L
461.161 231.487 L
462.661 230.397 L
463.234 228.633 LE
474.291 313.08 LS
473.718 311.317 L
472.218 310.227 L
470.364 310.227 L
468.864 311.317 L
468.291 313.08 L
468.864 314.844 L
470.364 315.934 L
472.218 315.934 L
473.718 314.844 L
474.291 313.08 LE
485.348 218.039 LS
484.775 216.276 L
483.275 215.186 L
481.421 215.186 L
479.921 216.276 L
479.348 218.039 L
479.921 219.802 L
481.421 220.892 L
483.275 220.892 L
484.775 219.802 L
485.348 218.039 LE
496.406 276.624 LS
495.833 274.861 L
494.333 273.771 L
492.479 273.771 L
490.979 274.861 L
490.406 276.624 L
490.979 278.388 L
492.479 279.477 L
494.333 279.477 L
495.833 278.388 L
496.406 276.624 LE
507.463 341.835 LS
506.89 340.072 L
505.39 338.982 L
503.536 338.982 L
502.036 340.072 L
501.463 341.835 L
502.036 343.599 L
503.536 344.688 L
505.39 344.688 L
506.89 343.599 L
507.463 341.835 LE
1 0 0 C
84.2827 132.883 LS
95.3416 136.274 L
106.398 139.666 L
117.455 143.057 L
128.514 146.448 L
139.57 149.84 L
150.627 153.231 L
161.684 156.622 L
172.742 160.014 L
183.799 163.405 L
194.856 166.796 L
205.915 170.188 L
216.971 173.579 L
228.028 176.97 L
239.087 180.362 L
250.143 183.753 L
261.2 187.144 L
272.259 190.536 L
283.315 193.927 L
294.372 197.318 L
305.429 200.71 L
316.488 204.101 L
327.544 207.492 L
338.601 210.884 L
349.66 214.275 L
360.716 217.666 L
371.773 221.058 L
382.832 224.449 L
393.888 227.84 L
404.945 231.231 L
416.004 234.623 L
427.061 238.014 L
438.117 241.405 L
449.176 244.797 L
460.233 248.188 L
471.289 251.579 L
482.346 254.971 L
493.405 258.362 L
504.461 261.753 L
515.518 265.145 LE
81.2845 135.883 LS
87.2845 129.883 LE
81.2845 129.883 LS
87.2845 135.883 LE
92.3418 139.274 LS
98.3419 133.274 LE
92.3418 133.274 LS
98.3419 139.274 LE
103.399 142.666 LS
109.399 136.666 LE
103.399 136.666 LS
109.399 142.666 LE
114.456 146.057 LS
120.456 140.057 LE
114.456 140.057 LS
120.456 146.057 LE
125.514 149.448 LS
131.514 143.448 LE
125.514 143.448 LS
131.514 149.448 LE
136.571 152.84 LS
142.571 146.84 LE
136.571 146.84 LS
142.571 152.84 LE
147.628 156.231 LS
153.628 150.231 LE
147.628 150.231 LS
153.628 156.231 LE
158.686 159.622 LS
164.686 153.622 LE
158.686 153.622 LS
164.686 159.622 LE
169.743 163.014 LS
175.743 157.014 LE
169.743 157.014 LS
175.743 163.014 LE
180.8 166.405 LS
186.8 160.405 LE
180.8 160.405 LS
186.8 166.405 LE
191.858 169.796 LS
197.858 163.796 LE
191.858 163.796 LS
197.858 169.796 LE
202.915 173.188 LS
208.915 167.188 LE
202.915 167.188 LS
208.915 173.188 LE
213.972 176.579 LS
219.972 170.579 LE
213.972 170.579 LS
219.972 176.579 LE
225.03 179.97 LS
231.03 173.97 LE
225.03 173.97 LS
231.03 179.97 LE
236.087 183.362 LS
242.087 177.362 LE
236.087 177.362 LS
242.087 183.362 LE
247.144 186.753 LS
253.144 180.753 LE
247.144 180.753 LS
253.144 186.753 LE
258.202 190.144 LS
264.202 184.144 LE
258.202 184.144 LS
264.202 190.144 LE
269.259 193.536 LS
275.259 187.536 LE
269.259 187.536 LS
275.259 193.536 LE
280.316 196.927 LS
286.316 190.927 LE
280.316 190.927 LS
286.316 196.927 LE
291.374 200.318 LS
297.374 194.318 LE
291.374 194.318 LS
297.374 200.318 LE
302.431 203.71 LS
308.431 197.71 LE
302.431 197.71 LS
308.431 203.71 LE
313.488 207.101 LS
319.488 201.101 LE
313.488 201.101 LS
319.488 207.101 LE
324.546 210.492 LS
330.546 204.492 LE
324.546 204.492 LS
330.546 210.492 LE
335.603 213.884 LS
341.603 207.884 LE
335.603 207.884 LS
341.603 213.884 LE
346.66 217.275 LS
352.66 211.275 LE
346.66 211.275 LS
352.66 217.275 LE
357.718 220.666 LS
363.718 214.666 LE
357.718 214.666 LS
363.718 220.666 LE
368.775 224.057 LS
374.775 218.057 LE
368.775 218.057 LS
374.775 224.057 LE
379.832 227.449 LS
385.832 221.449 LE
379.832 221.449 LS
385.832 227.449 LE
390.89 230.84 LS
396.89 224.84 LE
390.89 224.84 LS
396.89 230.84 LE
401.947 234.231 LS
407.947 228.231 LE
401.947 228.231 LS
407.947 234.231 LE
413.004 237.623 LS
419.004 231.623 LE
413.004 231.623 LS
419.004 237.623 LE
424.062 241.014 LS
430.062 235.014 LE
424.062 235.014 LS
430.062 241.014 LE
435.119 244.405 LS
441.119 238.405 LE
435.119 238.405 LS
441.119 244.405 LE
446.176 247.797 LS
452.176 241.797 LE
446.176 241.797 LS
452.176 247.797 LE
457.234 251.188 LS
463.234 245.188 LE
457.234 245.188 LS
463.234 251.188 LE
468.291 254.579 LS
474.291 248.579 LE
468.291 248.579 LS
474.291 254.579 LE
479.348 257.971 LS
485.348 251.971 LE
479.348 251.971 LS
485.348 257.971 LE
490.406 261.362 LS
496.406 255.362 LE
490.406 255.362 LS
496.406 261.362 LE
501.463 264.753 LS
507.463 258.753 LE
501.463 258.753 LS
507.463 264.753 LE
512.52 268.145 LS
518.52 262.145 LE
512.52 262.145 LS
518.52 268.145 LE
0 1 0 C
84.2827 132.883 LS
95.3416 136.274 L
106.398 139.666 L
117.455 143.057 L
128.514 146.448 L
139.57 149.84 L
150.627 153.231 L
161.684 156.622 L
172.742 160.014 L
183.799 163.405 L
194.856 166.796 L
205.915 170.188 L
216.971 173.579 L
228.028 176.97 L
239.087 180.362 L
250.143 183.753 L
261.2 187.144 L
272.259 190.536 L
283.315 193.927 L
294.372 197.318 L
305.429 200.71 L
316.488 204.101 L
327.544 207.492 L
338.601 210.884 L
349.66 214.275 L
360.716 217.666 L
371.773 221.058 L
382.832 224.449 L
393.888 227.84 L
404.945 231.231 L
416.004 234.623 L
427.061 238.014 L
438.117 241.405 L
449.176 244.797 L
460.233 248.188 L
471.289 251.579 L
482.346 254.971 L
493.405 258.362 L
504.461 261.753 L
515.518 265.145 LE
87.2845 132.883 LS
86.7116 131.12 L
85.2116 130.03 L
83.3575 130.03 L
81.8575 131.12 L
81.2845 132.883 L
81.8575 134.646 L
83.3575 135.736 L
85.2116 135.736 L
86.7116 134.646 L
87.2845 132.883 LE
98.3419 136.274 LS
97.7689 134.511 L
96.2689 133.421 L
94.4148 133.421 L
92.9148 134.511 L
92.3418 136.274 L
92.9148 138.038 L
94.4148 139.127 L
96.2689 139.127 L
97.7689 138.038 L
98.3419 136.274 LE
109.399 139.666 LS
108.826 137.902 L
107.326 136.812 L
105.472 136.812 L
103.972 137.902 L
103.399 139.666 L
103.972 141.429 L
105.472 142.519 L
107.326 142.519 L
108.826 141.429 L
109.399 139.666 LE
120.456 143.057 LS
119.884 141.294 L
118.384 140.204 L
116.529 140.204 L
115.029 141.294 L
114.456 143.057 L
115.029 144.82 L
116.529 145.91 L
118.384 145.91 L
119.884 144.82 L
120.456 143.057 LE
131.514 146.448 LS
130.941 144.685 L
129.441 143.595 L
127.587 143.595 L
126.087 144.685 L
125.514 146.448 L
126.087 148.212 L
127.587 149.301 L
129.441 149.301 L
130.941 148.212 L
131.514 146.448 LE
142.571 149.84 LS
141.998 148.076 L
140.498 146.986 L
138.644 146.986 L
137.144 148.076 L
136.571 149.84 L
137.144 151.603 L
138.644 152.693 L
140.498 152.693 L
141.998 151.603 L
142.571 149.84 LE
153.628 153.231 LS
153.056 151.468 L
151.556 150.378 L
149.701 150.378 L
148.201 151.468 L
147.628 153.231 L
148.201 154.994 L
149.701 156.084 L
151.556 156.084 L
153.056 154.994 L
153.628 153.231 LE
164.686 156.622 LS
164.113 154.859 L
162.613 153.769 L
160.759 153.769 L
159.259 154.859 L
158.686 156.622 L
159.259 158.386 L
160.759 159.475 L
162.613 159.475 L
164.113 158.386 L
164.686 156.622 LE
175.743 160.014 LS
175.17 158.25 L
173.67 157.16 L
171.816 157.16 L
170.316 158.25 L
169.743 160.014 L
170.316 161.777 L
171.816 162.867 L
173.67 162.867 L
175.17 161.777 L
175.743 160.014 LE
186.8 163.405 LS
186.227 161.642 L
184.727 160.552 L
182.873 160.552 L
181.373 161.642 L
180.8 163.405 L
181.373 165.168 L
182.873 166.258 L
184.727 166.258 L
186.227 165.168 L
186.8 163.405 LE
197.858 166.796 LS
197.285 165.033 L
195.785 163.943 L
193.931 163.943 L
192.431 165.033 L
191.858 166.796 L
192.431 168.56 L
193.931 169.649 L
195.785 169.649 L
197.285 168.56 L
197.858 166.796 LE
208.915 170.188 LS
208.342 168.424 L
206.842 167.334 L
204.988 167.334 L
203.488 168.424 L
202.915 170.188 L
203.488 171.951 L
204.988 173.041 L
206.842 173.041 L
208.342 171.951 L
208.915 170.188 LE
219.972 173.579 LS
219.399 171.816 L
217.899 170.726 L
216.045 170.726 L
214.545 171.816 L
213.972 173.579 L
214.545 175.342 L
216.045 176.432 L
217.899 176.432 L
219.399 175.342 L
219.972 173.579 LE
231.03 176.97 LS
230.457 175.207 L
228.957 174.117 L
227.103 174.117 L
225.603 175.207 L
225.03 176.97 L
225.603 178.734 L
227.103 179.823 L
228.957 179.823 L
230.457 178.734 L
231.03 176.97 LE
242.087 180.362 LS
241.514 178.598 L
240.014 177.508 L
238.16 177.508 L
236.66 178.598 L
236.087 180.362 L
236.66 182.125 L
238.16 183.215 L
240.014 183.215 L
241.514 182.125 L
242.087 180.362 LE
253.144 183.753 LS
252.571 181.99 L
251.071 180.9 L
249.217 180.9 L
247.717 181.99 L
247.144 183.753 L
247.717 185.516 L
249.217 186.606 L
251.071 186.606 L
252.571 185.516 L
253.144 183.753 LE
264.202 187.144 LS
263.629 185.381 L
262.129 184.291 L
260.275 184.291 L
258.775 185.381 L
258.202 187.144 L
258.775 188.908 L
260.275 189.997 L
262.129 189.997 L
263.629 188.908 L
264.202 187.144 LE
275.259 190.536 LS
274.686 188.772 L
273.186 187.682 L
271.332 187.682 L
269.832 188.772 L
269.259 190.536 L
269.832 192.299 L
271.332 193.389 L
273.186 193.389 L
274.686 192.299 L
275.259 190.536 LE
286.316 193.927 LS
285.743 192.164 L
284.243 191.074 L
282.389 191.074 L
280.889 192.164 L
280.316 193.927 L
280.889 195.69 L
282.389 196.78 L
284.243 196.78 L
285.743 195.69 L
286.316 193.927 LE
297.374 197.318 LS
296.801 195.555 L
295.301 194.465 L
293.447 194.465 L
291.947 195.555 L
291.374 197.318 L
291.947 199.082 L
293.447 200.171 L
295.301 200.171 L
296.801 199.082 L
297.374 197.318 LE
308.431 200.71 LS
307.858 198.946 L
306.358 197.856 L
304.504 197.856 L
303.004 198.946 L
302.431 200.71 L
303.004 202.473 L
304.504 203.563 L
306.358 203.563 L
307.858 202.473 L
308.431 200.71 LE
319.488 204.101 LS
318.915 202.338 L
317.415 201.248 L
315.561 201.248 L
314.061 202.338 L
313.488 204.101 L
314.061 205.864 L
315.561 206.954 L
317.415 206.954 L
318.915 205.864 L
319.488 204.101 LE
330.546 207.492 LS
329.973 205.729 L
328.473 204.639 L
326.619 204.639 L
325.119 205.729 L
324.546 207.492 L
325.119 209.256 L
326.619 210.345 L
328.473 210.345 L
329.973 209.256 L
330.546 207.492 LE
341.603 210.884 LS
341.03 209.12 L
339.53 208.03 L
337.676 208.03 L
336.176 209.12 L
335.603 210.884 L
336.176 212.647 L
337.676 213.737 L
339.53 213.737 L
341.03 212.647 L
341.603 210.884 LE
352.66 214.275 LS
352.087 212.511 L
350.587 211.422 L
348.733 211.422 L
347.233 212.511 L
346.66 214.275 L
347.233 216.038 L
348.733 217.128 L
350.587 217.128 L
352.087 216.038 L
352.66 214.275 LE
363.718 217.666 LS
363.145 215.903 L
361.645 214.813 L
359.791 214.813 L
358.291 215.903 L
357.718 217.666 L
358.291 219.43 L
359.791 220.519 L
361.645 220.519 L
363.145 219.43 L
363.718 217.666 LE
374.775 221.057 LS
374.202 219.294 L
372.702 218.204 L
370.848 218.204 L
369.348 219.294 L
368.775 221.057 L
369.348 222.821 L
370.848 223.911 L
372.702 223.911 L
374.202 222.821 L
374.775 221.057 LE
385.832 224.449 LS
385.259 222.685 L
383.759 221.596 L
381.905 221.596 L
380.405 222.685 L
379.832 224.449 L
380.405 226.212 L
381.905 227.302 L
383.759 227.302 L
385.259 226.212 L
385.832 224.449 LE
396.89 227.84 LS
396.317 226.077 L
394.817 224.987 L
392.963 224.987 L
391.463 226.077 L
390.89 227.84 L
391.463 229.604 L
392.963 230.693 L
394.817 230.693 L
396.317 229.604 L
396.89 227.84 LE
407.947 231.231 LS
407.374 229.468 L
405.874 228.378 L
404.02 228.378 L
402.52 229.468 L
401.947 231.231 L
402.52 232.995 L
404.02 234.085 L
405.874 234.085 L
407.374 232.995 L
407.947 231.231 LE
419.004 234.623 LS
418.431 232.859 L
416.931 231.77 L
415.077 231.77 L
413.577 232.859 L
413.004 234.623 L
413.577 236.386 L
415.077 237.476 L
416.931 237.476 L
418.431 236.386 L
419.004 234.623 LE
430.062 238.014 LS
429.489 236.251 L
427.989 235.161 L
426.135 235.161 L
424.635 236.251 L
424.062 238.014 L
424.635 239.777 L
426.135 240.867 L
427.989 240.867 L
429.489 239.777 L
430.062 238.014 LE
441.119 241.405 LS
440.546 239.642 L
439.046 238.552 L
437.192 238.552 L
435.692 239.642 L
435.119 241.405 L
435.692 243.169 L
437.192 244.259 L
439.046 244.259 L
440.546 243.169 L
441.119 241.405 LE
452.176 244.797 LS
451.603 243.033 L
450.103 241.944 L
448.249 241.944 L
446.749 243.033 L
446.176 244.797 L
446.749 246.56 L
448.249 247.65 L
450.103 247.65 L
451.603 246.56 L
452.176 244.797 LE
463.234 248.188 LS
462.661 246.425 L
461.161 245.335 L
459.307 245.335 L
457.807 246.425 L
457.234 248.188 L
457.807 249.951 L
459.307 251.041 L
461.161 251.041 L
462.661 249.951 L
463.234 248.188 LE
474.291 251.579 LS
473.718 249.816 L
472.218 248.726 L
470.364 248.726 L
468.864 249.816 L
468.291 251.579 L
468.864 253.343 L
470.364 254.433 L
472.218 254.433 L
473.718 253.343 L
474.291 251.579 LE
485.348 254.971 LS
484.775 253.207 L
483.275 252.118 L
481.421 252.118 L
479.921 253.207 L
479.348 254.971 L
479.921 256.734 L
481.421 257.824 L
483.275 257.824 L
484.775 256.734 L
485.348 254.971 LE
496.406 258.362 LS
495.833 256.599 L
494.333 255.509 L
492.479 255.509 L
490.979 256.599 L
490.406 258.362 L
490.979 260.125 L
492.479 261.215 L
494.333 261.215 L
495.833 260.125 L
496.406 258.362 LE
507.463 261.753 LS
506.89 259.99 L
505.39 258.9 L
503.536 258.9 L
502.036 259.99 L
501.463 261.753 L
502.036 263.517 L
503.536 264.607 L
505.39 264.607 L
506.89 263.517 L
507.463 261.753 LE
518.52 265.145 LS
517.947 263.381 L
516.447 262.292 L
514.593 262.292 L
513.093 263.381 L
512.52 265.145 L
513.093 266.908 L
514.593 267.998 L
516.447 267.998 L
517.947 266.908 L
518.52 265.145 LE
[16 0] 0 setdash
0 0 0 C
77.025 357.077 LS
184.919 357.077 LE
77.025 397.455 LS
184.919 397.455 LE
77.025 357.077 LS
77.025 397.455 LE
184.919 357.077 LS
184.919 397.455 LE
(podatki) 97.4022 390.725 10 /Helvetica SCL
(periodicni model) 97.4022 377.266 10 /Helvetica SCL
(polinomski model) 97.4022 363.807 10 /Helvetica SCL
[] 0 setdash
0 0 1 C
79.17 390.725 LS
95.2572 390.725 LE
90.2136 390.725 LS
89.6406 388.962 L
88.1406 387.872 L
86.2865 387.872 L
84.7865 388.962 L
84.2136 390.725 L
84.7865 392.489 L
86.2865 393.579 L
88.1406 393.579 L
89.6406 392.489 L
90.2136 390.725 LE
1 0 0 C
79.17 377.266 LS
95.2572 377.266 LE
84.2136 380.266 LS
90.2136 374.266 LE
84.2136 374.266 LS
90.2136 380.266 LE
0 1 0 C
79.17 363.807 LS
95.2572 363.807 LE
90.2136 363.807 LS
89.6406 362.044 L
88.1406 360.954 L
86.2865 360.954 L
84.7865 362.044 L
84.2136 363.807 L
84.7865 365.57 L
86.2865 366.66 L
88.1406 366.66 L
89.6406 365.57 L
90.2136 363.807 LE
0 0 0 C
(Povprecni letni prirastek) 298.08 409.6 10 /Helvetica SBC
grestore
showpage
cleartomark
%%PageTrailer
%%Trailer
end
%%EOF
