%!PS-Adobe-3.0 EPSF-3.0
%%Title: glps_renderer figure
%%Creator: GL2PS 1.3.9, (C) 1999-2015 C. Geuzaine
%%For: Octave
%%CreationDate: Mon Mar 14 01:57:53 2016
%%LanguageLevel: 3
%%DocumentData: Clean7Bit
%%Pages: 1
%%BoundingBox: 0 0 576 432
%%EndComments
%%BeginProlog
/gl2psdict 64 dict def gl2psdict begin
0 setlinecap 0 setlinejoin
/tryPS3shading false def % set to false to force subdivision
/rThreshold 0.064 def % red component subdivision threshold
/gThreshold 0.034 def % green component subdivision threshold
/bThreshold 0.1 def % blue component subdivision threshold
/BD { bind def } bind def
/C  { setrgbcolor } BD
/G  { 0.082 mul exch 0.6094 mul add exch 0.3086 mul add neg 1.0 add setgray } BD
/W  { setlinewidth } BD
/FC { findfont exch /SH exch def SH scalefont setfont } BD
/SW { dup stringwidth pop } BD
/S  { FC moveto show } BD
/SBC{ FC moveto SW -2 div 0 rmoveto show } BD
/SBR{ FC moveto SW neg 0 rmoveto show } BD
/SCL{ FC moveto 0 SH -2 div rmoveto show } BD
/SCC{ FC moveto SW -2 div SH -2 div rmoveto show } BD
/SCR{ FC moveto SW neg SH -2 div rmoveto show } BD
/STL{ FC moveto 0 SH neg rmoveto show } BD
/STC{ FC moveto SW -2 div SH neg rmoveto show } BD
/STR{ FC moveto SW neg SH neg rmoveto show } BD
/FCT { FC translate 0 0 } BD
/SR  { gsave FCT moveto rotate show grestore } BD
/SBCR{ gsave FCT moveto rotate SW -2 div 0 rmoveto show grestore } BD
/SBRR{ gsave FCT moveto rotate SW neg 0 rmoveto show grestore } BD
/SCLR{ gsave FCT moveto rotate 0 SH -2 div rmoveto show grestore} BD
/SCCR{ gsave FCT moveto rotate SW -2 div SH -2 div rmoveto show grestore} BD
/SCRR{ gsave FCT moveto rotate SW neg SH -2 div rmoveto show grestore} BD
/STLR{ gsave FCT moveto rotate 0 SH neg rmoveto show grestore } BD
/STCR{ gsave FCT moveto rotate SW -2 div SH neg rmoveto show grestore } BD
/STRR{ gsave FCT moveto rotate SW neg SH neg rmoveto show grestore } BD
/P  { newpath 0.0 360.0 arc closepath fill } BD
/LS { newpath moveto } BD
/L  { lineto } BD
/LE { lineto stroke } BD
/T  { newpath moveto lineto lineto closepath fill } BD
/STshfill {
      /b1 exch def /g1 exch def /r1 exch def /y1 exch def /x1 exch def
      /b2 exch def /g2 exch def /r2 exch def /y2 exch def /x2 exch def
      /b3 exch def /g3 exch def /r3 exch def /y3 exch def /x3 exch def
      gsave << /ShadingType 4 /ColorSpace [/DeviceRGB]
      /DataSource [ 0 x1 y1 r1 g1 b1 0 x2 y2 r2 g2 b2 0 x3 y3 r3 g3 b3 ] >>
      shfill grestore } BD
/Tm { 3 -1 roll 8 -1 roll 13 -1 roll add add 3 div
      3 -1 roll 7 -1 roll 11 -1 roll add add 3 div
      3 -1 roll 6 -1 roll 9 -1 roll add add 3 div C T } BD
/STsplit {
      4 index 15 index add 0.5 mul
      4 index 15 index add 0.5 mul
      4 index 15 index add 0.5 mul
      4 index 15 index add 0.5 mul
      4 index 15 index add 0.5 mul
      5 copy 5 copy 25 15 roll
      9 index 30 index add 0.5 mul
      9 index 30 index add 0.5 mul
      9 index 30 index add 0.5 mul
      9 index 30 index add 0.5 mul
      9 index 30 index add 0.5 mul
      5 copy 5 copy 35 5 roll 25 5 roll 15 5 roll
      4 index 10 index add 0.5 mul
      4 index 10 index add 0.5 mul
      4 index 10 index add 0.5 mul
      4 index 10 index add 0.5 mul
      4 index 10 index add 0.5 mul
      5 copy 5 copy 40 5 roll 25 5 roll 15 5 roll 25 5 roll
      STnoshfill STnoshfill STnoshfill STnoshfill } BD
/STnoshfill {
      2 index 8 index sub abs rThreshold gt
      { STsplit }
      { 1 index 7 index sub abs gThreshold gt
        { STsplit }
        { dup 6 index sub abs bThreshold gt
          { STsplit }
          { 2 index 13 index sub abs rThreshold gt
            { STsplit }
            { 1 index 12 index sub abs gThreshold gt
              { STsplit }
              { dup 11 index sub abs bThreshold gt
                { STsplit }
                { 7 index 13 index sub abs rThreshold gt
                  { STsplit }
                  { 6 index 12 index sub abs gThreshold gt
                    { STsplit }
                    { 5 index 11 index sub abs bThreshold gt
                      { STsplit }
                      { Tm }
                      ifelse }
                    ifelse }
                  ifelse }
                ifelse }
              ifelse }
            ifelse }
          ifelse }
        ifelse }
      ifelse } BD
tryPS3shading
{ /shfill where
  { /ST { STshfill } BD }
  { /ST { STnoshfill } BD }
  ifelse }
{ /ST { STnoshfill } BD }
ifelse
end
%%EndProlog
%%BeginSetup
/DeviceRGB setcolorspace
gl2psdict begin
%%EndSetup
%%Page: 1 1
%%BeginPageSetup
%%EndPageSetup
mark
gsave
1.0 1.0 scale
1 1 1 C
74.8806 399.6 521.279 47.52 74.8806 47.52 T
74.8806 399.6 521.279 399.6 521.279 47.52 T
77.025 397.455 184.919 357.077 77.025 357.077 T
77.025 397.455 184.919 397.455 184.919 357.077 T
0.5 W
[16 0] 0 setdash
0 0 0 C
74.8806 47.52 LS
521.279 47.52 LE
74.8806 399.6 LS
521.279 399.6 LE
74.8806 47.52 LS
74.8806 399.6 LE
521.279 47.52 LS
521.279 399.6 LE
131.928 47.52 LS
131.928 399.6 LE
242.952 47.52 LS
242.952 399.6 LE
353.975 47.52 LS
353.975 399.6 LE
465.001 47.52 LS
465.001 399.6 LE
131.928 47.52 LS
131.928 51.985 LE
131.928 399.6 LS
131.928 395.135 LE
242.952 47.52 LS
242.952 51.985 LE
242.952 399.6 LS
242.952 395.135 LE
353.975 47.52 LS
353.975 51.985 LE
353.975 399.6 LS
353.975 395.135 LE
465.001 47.52 LS
465.001 51.985 LE
465.001 399.6 LS
465.001 395.135 LE
(1980) 131.928 42.5189 10 /Helvetica STC
(1990) 242.952 42.5189 10 /Helvetica STC
(2000) 353.976 42.5189 10 /Helvetica STC
(2010) 465.001 42.5189 10 /Helvetica STC
[0 3 1 3 1 3 1 3 1 0] 0 setdash
87.5171 47.52 LS
87.5171 399.6 LE
109.723 47.52 LS
109.723 399.6 LE
154.132 47.52 LS
154.132 399.6 LE
176.337 47.52 LS
176.337 399.6 LE
198.543 47.52 LS
198.543 399.6 LE
220.746 47.52 LS
220.746 399.6 LE
265.157 47.52 LS
265.157 399.6 LE
287.361 47.52 LS
287.361 399.6 LE
309.566 47.52 LS
309.566 399.6 LE
331.772 47.52 LS
331.772 399.6 LE
376.181 47.52 LS
376.181 399.6 LE
398.386 47.52 LS
398.386 399.6 LE
420.592 47.52 LS
420.592 399.6 LE
442.795 47.52 LS
442.795 399.6 LE
487.206 47.52 LS
487.206 399.6 LE
509.41 47.52 LS
509.41 399.6 LE
[16 0] 0 setdash
74.8806 93.2268 LS
521.279 93.2268 LE
74.8806 145.084 LS
521.279 145.084 LE
74.8806 196.942 LS
521.279 196.942 LE
74.8806 248.799 LS
521.279 248.799 LE
74.8806 300.657 LS
521.279 300.657 LE
74.8806 352.515 LS
521.279 352.515 LE
74.8806 93.2268 LS
79.3477 93.2268 LE
521.279 93.2268 LS
516.812 93.2268 LE
74.8806 145.084 LS
79.3477 145.084 LE
521.279 145.084 LS
516.812 145.084 LE
74.8806 196.942 LS
79.3477 196.942 LE
521.279 196.942 LS
516.812 196.942 LE
74.8806 248.799 LS
79.3477 248.799 LE
521.279 248.799 LS
516.812 248.799 LE
74.8806 300.657 LS
79.3477 300.657 LE
521.279 300.657 LS
516.812 300.657 LE
74.8806 352.515 LS
79.3477 352.515 LE
521.279 352.515 LS
516.812 352.515 LE
(-1) 69.8762 93.2268 10 /Helvetica SCR
(-0.5) 69.8762 145.084 10 /Helvetica SCR
(0) 69.8762 196.942 10 /Helvetica SCR
(0.5) 69.8762 248.799 10 /Helvetica SCR
(1) 69.8762 300.657 10 /Helvetica SCR
(1.5) 69.8762 352.515 10 /Helvetica SCR
[0 3 1 3 1 3 1 3 1 0] 0 setdash
74.8806 51.7407 LS
521.279 51.7407 LE
74.8806 62.1122 LS
521.279 62.1122 LE
74.8806 72.4837 LS
521.279 72.4837 LE
74.8806 82.8553 LS
521.279 82.8553 LE
74.8806 103.598 LS
521.279 103.598 LE
74.8806 113.97 LS
521.279 113.97 LE
74.8806 124.341 LS
521.279 124.341 LE
74.8806 134.713 LS
521.279 134.713 LE
74.8806 155.456 LS
521.279 155.456 LE
74.8806 165.827 LS
521.279 165.827 LE
74.8806 176.199 LS
521.279 176.199 LE
74.8806 186.57 LS
521.279 186.57 LE
74.8806 207.313 LS
521.279 207.313 LE
74.8806 217.685 LS
521.279 217.685 LE
74.8806 228.056 LS
521.279 228.056 LE
74.8806 238.428 LS
521.279 238.428 LE
74.8806 259.171 LS
521.279 259.171 LE
74.8806 269.542 LS
521.279 269.542 LE
74.8806 279.914 LS
521.279 279.914 LE
74.8806 290.286 LS
521.279 290.286 LE
74.8806 311.029 LS
521.279 311.029 LE
74.8806 321.4 LS
521.279 321.4 LE
74.8806 331.772 LS
521.279 331.772 LE
74.8806 342.143 LS
521.279 342.143 LE
74.8806 362.886 LS
521.279 362.886 LE
74.8806 373.258 LS
521.279 373.258 LE
74.8806 383.629 LS
521.279 383.629 LE
74.8806 394.001 LS
521.279 394.001 LE
(leto) 298.081 31.5189 10 /Helvetica STC
(sprememba prirastka ppm CO2) 90 46.8757 223.56 10 /Helvetica SBCR
[] 0 setdash
0 0 1 C
87.5171 95.6913 LS
98.6199 297.841 L
109.723 187.57 L
120.825 159.039 L
131.928 276.657 L
143.029 119.76 L
154.132 184.533 L
165.234 247.601 L
176.337 165.465 L
187.44 232.661 L
198.543 152.371 L
209.646 249.054 L
220.746 260.433 L
231.849 102.522 L
242.952 173.077 L
254.054 188.155 L
265.157 161.489 L
276.26 184.575 L
287.361 297.054 L
298.463 225.808 L
309.566 181.214 L
320.669 122.33 L
331.772 392.185 L
342.875 56.5659 L
353.975 156.361 L
365.078 227.935 L
376.181 259.506 L
387.283 245.182 L
398.386 117.471 L
409.489 244.664 L
420.592 163.516 L
431.692 189.212 L
442.795 172.668 L
453.898 219.441 L
465.001 255.094 L
476.104 131.494 L
487.206 237.285 L
498.307 241.848 LE
90.5173 95.6913 LS
89.9444 93.928 L
88.4444 92.8382 L
86.5903 92.8382 L
85.0903 93.928 L
84.5173 95.6913 L
85.0903 97.4547 L
86.5903 98.5445 L
88.4444 98.5445 L
89.9444 97.4547 L
90.5173 95.6913 LE
101.62 297.841 LS
101.047 296.077 L
99.5468 294.987 L
97.6927 294.987 L
96.1927 296.077 L
95.6198 297.841 L
96.1927 299.604 L
97.6927 300.694 L
99.5468 300.694 L
101.047 299.604 L
101.62 297.841 LE
112.722 187.57 LS
112.149 185.807 L
110.649 184.717 L
108.795 184.717 L
107.295 185.807 L
106.722 187.57 L
107.295 189.334 L
108.795 190.424 L
110.649 190.424 L
112.149 189.334 L
112.722 187.57 LE
123.825 159.039 LS
123.252 157.276 L
121.752 156.186 L
119.898 156.186 L
118.398 157.276 L
117.825 159.039 L
118.398 160.802 L
119.898 161.892 L
121.752 161.892 L
123.252 160.802 L
123.825 159.039 LE
134.927 276.657 LS
134.354 274.893 L
132.854 273.803 L
131 273.803 L
129.5 274.893 L
128.927 276.657 L
129.5 278.42 L
131 279.51 L
132.854 279.51 L
134.354 278.42 L
134.927 276.657 LE
146.03 119.76 LS
145.457 117.996 L
143.957 116.907 L
142.102 116.907 L
140.602 117.996 L
140.03 119.76 L
140.602 121.523 L
142.102 122.613 L
143.957 122.613 L
145.457 121.523 L
146.03 119.76 LE
157.132 184.533 LS
156.559 182.769 L
155.059 181.68 L
153.205 181.68 L
151.705 182.769 L
151.132 184.533 L
151.705 186.296 L
153.205 187.386 L
155.059 187.386 L
156.559 186.296 L
157.132 184.533 LE
168.234 247.602 LS
167.661 245.838 L
166.161 244.748 L
164.307 244.748 L
162.807 245.838 L
162.234 247.602 L
162.807 249.365 L
164.307 250.455 L
166.161 250.455 L
167.661 249.365 L
168.234 247.602 LE
179.337 165.465 LS
178.764 163.702 L
177.264 162.612 L
175.41 162.612 L
173.91 163.702 L
173.337 165.465 L
173.91 167.228 L
175.41 168.318 L
177.264 168.318 L
178.764 167.228 L
179.337 165.465 LE
190.439 232.661 LS
189.866 230.898 L
188.366 229.808 L
186.512 229.808 L
185.012 230.898 L
184.439 232.661 L
185.012 234.425 L
186.512 235.515 L
188.366 235.515 L
189.866 234.425 L
190.439 232.661 LE
201.542 152.371 LS
200.969 150.608 L
199.469 149.518 L
197.615 149.518 L
196.115 150.608 L
195.542 152.371 L
196.115 154.134 L
197.615 155.224 L
199.469 155.224 L
200.969 154.134 L
201.542 152.371 LE
212.644 249.054 LS
212.071 247.291 L
210.571 246.201 L
208.717 246.201 L
207.217 247.291 L
206.644 249.054 L
207.217 250.818 L
208.717 251.908 L
210.571 251.908 L
212.071 250.818 L
212.644 249.054 LE
223.747 260.433 LS
223.174 258.669 L
221.674 257.58 L
219.82 257.58 L
218.32 258.669 L
217.747 260.433 L
218.32 262.196 L
219.82 263.286 L
221.674 263.286 L
223.174 262.196 L
223.747 260.433 LE
234.849 102.522 LS
234.276 100.758 L
232.776 99.6687 L
230.922 99.6687 L
229.422 100.758 L
228.849 102.522 L
229.422 104.285 L
230.922 105.375 L
232.776 105.375 L
234.276 104.285 L
234.849 102.522 LE
245.952 173.077 LS
245.379 171.314 L
243.879 170.224 L
242.024 170.224 L
240.524 171.314 L
239.952 173.077 L
240.524 174.841 L
242.024 175.931 L
243.879 175.931 L
245.379 174.841 L
245.952 173.077 LE
257.054 188.155 LS
256.481 186.391 L
254.981 185.301 L
253.127 185.301 L
251.627 186.391 L
251.054 188.155 L
251.627 189.918 L
253.127 191.008 L
254.981 191.008 L
256.481 189.918 L
257.054 188.155 LE
268.156 161.489 LS
267.583 159.725 L
266.083 158.636 L
264.229 158.636 L
262.729 159.725 L
262.156 161.489 L
262.729 163.252 L
264.229 164.342 L
266.083 164.342 L
267.583 163.252 L
268.156 161.489 LE
279.259 184.575 LS
278.686 182.812 L
277.186 181.722 L
275.332 181.722 L
273.832 182.812 L
273.259 184.575 L
273.832 186.339 L
275.332 187.429 L
277.186 187.429 L
278.686 186.339 L
279.259 184.575 LE
290.361 297.054 LS
289.788 295.29 L
288.288 294.201 L
286.434 294.201 L
284.934 295.29 L
284.361 297.054 L
284.934 298.817 L
286.434 299.907 L
288.288 299.907 L
289.788 298.817 L
290.361 297.054 LE
301.464 225.808 LS
300.891 224.045 L
299.391 222.955 L
297.537 222.955 L
296.037 224.045 L
295.464 225.808 L
296.037 227.572 L
297.537 228.662 L
299.391 228.662 L
300.891 227.572 L
301.464 225.808 LE
312.566 181.214 LS
311.993 179.451 L
310.493 178.361 L
308.639 178.361 L
307.139 179.451 L
306.566 181.214 L
307.139 182.978 L
308.639 184.067 L
310.493 184.067 L
311.993 182.978 L
312.566 181.214 LE
323.669 122.33 LS
323.096 120.567 L
321.596 119.477 L
319.742 119.477 L
318.242 120.567 L
317.669 122.33 L
318.242 124.093 L
319.742 125.183 L
321.596 125.183 L
323.096 124.093 L
323.669 122.33 LE
334.771 392.185 LS
334.198 390.421 L
332.698 389.332 L
330.844 389.332 L
329.344 390.421 L
328.771 392.185 L
329.344 393.948 L
330.844 395.038 L
332.698 395.038 L
334.198 393.948 L
334.771 392.185 LE
345.874 56.5659 LS
345.301 54.8026 L
343.801 53.7128 L
341.946 53.7128 L
340.446 54.8026 L
339.874 56.5659 L
340.446 58.3293 L
341.946 59.4191 L
343.801 59.4191 L
345.301 58.3293 L
345.874 56.5659 LE
356.976 156.361 LS
356.403 154.598 L
354.903 153.508 L
353.049 153.508 L
351.549 154.598 L
350.976 156.361 L
351.549 158.124 L
353.049 159.214 L
354.903 159.214 L
356.403 158.124 L
356.976 156.361 LE
368.078 227.935 LS
367.505 226.171 L
366.005 225.082 L
364.151 225.082 L
362.651 226.171 L
362.078 227.935 L
362.651 229.698 L
364.151 230.788 L
366.005 230.788 L
367.505 229.698 L
368.078 227.935 LE
379.181 259.506 LS
378.608 257.743 L
377.108 256.653 L
375.254 256.653 L
373.754 257.743 L
373.181 259.506 L
373.754 261.27 L
375.254 262.36 L
377.108 262.36 L
378.608 261.27 L
379.181 259.506 LE
390.283 245.182 LS
389.71 243.418 L
388.21 242.329 L
386.356 242.329 L
384.856 243.418 L
384.283 245.182 L
384.856 246.945 L
386.356 248.035 L
388.21 248.035 L
389.71 246.945 L
390.283 245.182 LE
401.386 117.471 LS
400.813 115.708 L
399.313 114.618 L
397.459 114.618 L
395.959 115.708 L
395.386 117.471 L
395.959 119.235 L
397.459 120.325 L
399.313 120.325 L
400.813 119.235 L
401.386 117.471 LE
412.488 244.664 LS
411.915 242.901 L
410.415 241.811 L
408.561 241.811 L
407.061 242.901 L
406.488 244.664 L
407.061 246.427 L
408.561 247.517 L
410.415 247.517 L
411.915 246.427 L
412.488 244.664 LE
423.591 163.517 LS
423.018 161.753 L
421.518 160.663 L
419.664 160.663 L
418.164 161.753 L
417.591 163.517 L
418.164 165.28 L
419.664 166.37 L
421.518 166.37 L
423.018 165.28 L
423.591 163.517 LE
434.693 189.212 LS
434.12 187.449 L
432.62 186.359 L
430.766 186.359 L
429.266 187.449 L
428.693 189.212 L
429.266 190.976 L
430.766 192.066 L
432.62 192.066 L
434.12 190.976 L
434.693 189.212 LE
445.795 172.668 LS
445.223 170.905 L
443.723 169.815 L
441.868 169.815 L
440.368 170.905 L
439.795 172.668 L
440.368 174.432 L
441.868 175.522 L
443.723 175.522 L
445.223 174.432 L
445.795 172.668 LE
456.898 219.441 LS
456.325 217.677 L
454.825 216.588 L
452.971 216.588 L
451.471 217.677 L
450.898 219.441 L
451.471 221.204 L
452.971 222.294 L
454.825 222.294 L
456.325 221.204 L
456.898 219.441 LE
468 255.094 LS
467.427 253.331 L
465.927 252.241 L
464.073 252.241 L
462.573 253.331 L
462 255.094 L
462.573 256.858 L
464.073 257.947 L
465.927 257.947 L
467.427 256.858 L
468 255.094 LE
479.103 131.494 LS
478.53 129.731 L
477.03 128.641 L
475.176 128.641 L
473.676 129.731 L
473.103 131.494 L
473.676 133.257 L
475.176 134.347 L
477.03 134.347 L
478.53 133.257 L
479.103 131.494 LE
490.205 237.285 LS
489.632 235.522 L
488.132 234.432 L
486.278 234.432 L
484.778 235.522 L
484.205 237.285 L
484.778 239.049 L
486.278 240.138 L
488.132 240.138 L
489.632 239.049 L
490.205 237.285 LE
501.308 241.848 LS
500.735 240.084 L
499.235 238.995 L
497.381 238.995 L
495.881 240.084 L
495.308 241.848 L
495.881 243.611 L
497.381 244.701 L
499.235 244.701 L
500.735 243.611 L
501.308 241.848 LE
1 0 0 C
87.5171 199.277 LS
98.6199 199.277 L
109.723 199.277 L
120.825 199.277 L
131.928 199.277 L
143.029 199.277 L
154.132 199.277 L
165.234 199.277 L
176.337 199.277 L
187.44 199.277 L
198.543 199.277 L
209.646 199.277 L
220.746 199.277 L
231.849 199.277 L
242.952 199.277 L
254.054 199.277 L
265.157 199.277 L
276.26 199.277 L
287.361 199.277 L
298.463 199.277 L
309.566 199.277 L
320.669 199.277 L
331.772 199.277 L
342.875 199.277 L
353.975 199.277 L
365.078 199.277 L
376.181 199.277 L
387.283 199.277 L
398.386 199.277 L
409.489 199.277 L
420.592 199.277 L
431.692 199.277 L
442.795 199.277 L
453.898 199.277 L
465.001 199.277 L
476.104 199.277 L
487.206 199.277 L
498.307 199.277 L
509.41 199.277 LE
84.5173 202.277 LS
90.5173 196.277 LE
84.5173 196.277 LS
90.5173 202.277 LE
95.6198 202.277 LS
101.62 196.277 LE
95.6198 196.277 LS
101.62 202.277 LE
106.722 202.277 LS
112.722 196.277 LE
106.722 196.277 LS
112.722 202.277 LE
117.825 202.277 LS
123.825 196.277 LE
117.825 196.277 LS
123.825 202.277 LE
128.927 202.277 LS
134.927 196.277 LE
128.927 196.277 LS
134.927 202.277 LE
140.03 202.277 LS
146.03 196.277 LE
140.03 196.277 LS
146.03 202.277 LE
151.132 202.277 LS
157.132 196.277 LE
151.132 196.277 LS
157.132 202.277 LE
162.234 202.277 LS
168.234 196.277 LE
162.234 196.277 LS
168.234 202.277 LE
173.337 202.277 LS
179.337 196.277 LE
173.337 196.277 LS
179.337 202.277 LE
184.439 202.277 LS
190.439 196.277 LE
184.439 196.277 LS
190.439 202.277 LE
195.542 202.277 LS
201.542 196.277 LE
195.542 196.277 LS
201.542 202.277 LE
206.644 202.277 LS
212.644 196.277 LE
206.644 196.277 LS
212.644 202.277 LE
217.747 202.277 LS
223.747 196.277 LE
217.747 196.277 LS
223.747 202.277 LE
228.849 202.277 LS
234.849 196.277 LE
228.849 196.277 LS
234.849 202.277 LE
239.952 202.277 LS
245.952 196.277 LE
239.952 196.277 LS
245.952 202.277 LE
251.054 202.277 LS
257.054 196.277 LE
251.054 196.277 LS
257.054 202.277 LE
262.156 202.277 LS
268.156 196.277 LE
262.156 196.277 LS
268.156 202.277 LE
273.259 202.277 LS
279.259 196.277 LE
273.259 196.277 LS
279.259 202.277 LE
284.361 202.277 LS
290.361 196.277 LE
284.361 196.277 LS
290.361 202.277 LE
295.464 202.277 LS
301.464 196.277 LE
295.464 196.277 LS
301.464 202.277 LE
306.566 202.277 LS
312.566 196.277 LE
306.566 196.277 LS
312.566 202.277 LE
317.669 202.277 LS
323.669 196.277 LE
317.669 196.277 LS
323.669 202.277 LE
328.771 202.277 LS
334.771 196.277 LE
328.771 196.277 LS
334.771 202.277 LE
339.874 202.277 LS
345.874 196.277 LE
339.874 196.277 LS
345.874 202.277 LE
350.976 202.277 LS
356.976 196.277 LE
350.976 196.277 LS
356.976 202.277 LE
362.078 202.277 LS
368.078 196.277 LE
362.078 196.277 LS
368.078 202.277 LE
373.181 202.277 LS
379.181 196.277 LE
373.181 196.277 LS
379.181 202.277 LE
384.283 202.277 LS
390.283 196.277 LE
384.283 196.277 LS
390.283 202.277 LE
395.386 202.277 LS
401.386 196.277 LE
395.386 196.277 LS
401.386 202.277 LE
406.488 202.277 LS
412.488 196.277 LE
406.488 196.277 LS
412.488 202.277 LE
417.591 202.277 LS
423.591 196.277 LE
417.591 196.277 LS
423.591 202.277 LE
428.693 202.277 LS
434.693 196.277 LE
428.693 196.277 LS
434.693 202.277 LE
439.795 202.277 LS
445.795 196.277 LE
439.795 196.277 LS
445.795 202.277 LE
450.898 202.277 LS
456.898 196.277 LE
450.898 196.277 LS
456.898 202.277 LE
462 202.277 LS
468 196.277 LE
462 196.277 LS
468 202.277 LE
473.103 202.277 LS
479.103 196.277 LE
473.103 196.277 LS
479.103 202.277 LE
484.205 202.277 LS
490.205 196.277 LE
484.205 196.277 LS
490.205 202.277 LE
495.308 202.277 LS
501.308 196.277 LE
495.308 196.277 LS
501.308 202.277 LE
506.41 202.277 LS
512.41 196.277 LE
506.41 196.277 LS
512.41 202.277 LE
0 1 0 C
87.5171 199.277 LS
98.6199 199.277 L
109.723 199.277 L
120.825 199.277 L
131.928 199.277 L
143.029 199.277 L
154.132 199.277 L
165.234 199.277 L
176.337 199.277 L
187.44 199.277 L
198.543 199.277 L
209.646 199.277 L
220.746 199.277 L
231.849 199.277 L
242.952 199.277 L
254.054 199.277 L
265.157 199.277 L
276.26 199.277 L
287.361 199.277 L
298.463 199.277 L
309.566 199.277 L
320.669 199.277 L
331.772 199.277 L
342.875 199.277 L
353.975 199.277 L
365.078 199.277 L
376.181 199.277 L
387.283 199.277 L
398.386 199.277 L
409.489 199.277 L
420.592 199.277 L
431.692 199.277 L
442.795 199.277 L
453.898 199.277 L
465.001 199.277 L
476.104 199.277 L
487.206 199.277 L
498.307 199.277 L
509.41 199.277 LE
90.5173 199.277 LS
89.9444 197.514 L
88.4444 196.424 L
86.5903 196.424 L
85.0903 197.514 L
84.5173 199.277 L
85.0903 201.041 L
86.5903 202.13 L
88.4444 202.13 L
89.9444 201.041 L
90.5173 199.277 LE
101.62 199.277 LS
101.047 197.514 L
99.5468 196.424 L
97.6927 196.424 L
96.1927 197.514 L
95.6198 199.277 L
96.1927 201.041 L
97.6927 202.13 L
99.5468 202.13 L
101.047 201.041 L
101.62 199.277 LE
112.722 199.277 LS
112.149 197.514 L
110.649 196.424 L
108.795 196.424 L
107.295 197.514 L
106.722 199.277 L
107.295 201.041 L
108.795 202.13 L
110.649 202.13 L
112.149 201.041 L
112.722 199.277 LE
123.825 199.277 LS
123.252 197.514 L
121.752 196.424 L
119.898 196.424 L
118.398 197.514 L
117.825 199.277 L
118.398 201.041 L
119.898 202.13 L
121.752 202.13 L
123.252 201.041 L
123.825 199.277 LE
134.927 199.277 LS
134.354 197.514 L
132.854 196.424 L
131 196.424 L
129.5 197.514 L
128.927 199.277 L
129.5 201.041 L
131 202.13 L
132.854 202.13 L
134.354 201.041 L
134.927 199.277 LE
146.03 199.277 LS
145.457 197.514 L
143.957 196.424 L
142.102 196.424 L
140.602 197.514 L
140.03 199.277 L
140.602 201.041 L
142.102 202.13 L
143.957 202.13 L
145.457 201.041 L
146.03 199.277 LE
157.132 199.277 LS
156.559 197.514 L
155.059 196.424 L
153.205 196.424 L
151.705 197.514 L
151.132 199.277 L
151.705 201.041 L
153.205 202.13 L
155.059 202.13 L
156.559 201.041 L
157.132 199.277 LE
168.234 199.277 LS
167.661 197.514 L
166.161 196.424 L
164.307 196.424 L
162.807 197.514 L
162.234 199.277 L
162.807 201.041 L
164.307 202.13 L
166.161 202.13 L
167.661 201.041 L
168.234 199.277 LE
179.337 199.277 LS
178.764 197.514 L
177.264 196.424 L
175.41 196.424 L
173.91 197.514 L
173.337 199.277 L
173.91 201.041 L
175.41 202.13 L
177.264 202.13 L
178.764 201.041 L
179.337 199.277 LE
190.439 199.277 LS
189.866 197.514 L
188.366 196.424 L
186.512 196.424 L
185.012 197.514 L
184.439 199.277 L
185.012 201.041 L
186.512 202.13 L
188.366 202.13 L
189.866 201.041 L
190.439 199.277 LE
201.542 199.277 LS
200.969 197.514 L
199.469 196.424 L
197.615 196.424 L
196.115 197.514 L
195.542 199.277 L
196.115 201.041 L
197.615 202.13 L
199.469 202.13 L
200.969 201.041 L
201.542 199.277 LE
212.644 199.277 LS
212.071 197.514 L
210.571 196.424 L
208.717 196.424 L
207.217 197.514 L
206.644 199.277 L
207.217 201.041 L
208.717 202.13 L
210.571 202.13 L
212.071 201.041 L
212.644 199.277 LE
223.747 199.277 LS
223.174 197.514 L
221.674 196.424 L
219.82 196.424 L
218.32 197.514 L
217.747 199.277 L
218.32 201.041 L
219.82 202.13 L
221.674 202.13 L
223.174 201.041 L
223.747 199.277 LE
234.849 199.277 LS
234.276 197.514 L
232.776 196.424 L
230.922 196.424 L
229.422 197.514 L
228.849 199.277 L
229.422 201.041 L
230.922 202.13 L
232.776 202.13 L
234.276 201.041 L
234.849 199.277 LE
245.952 199.277 LS
245.379 197.514 L
243.879 196.424 L
242.024 196.424 L
240.524 197.514 L
239.952 199.277 L
240.524 201.041 L
242.024 202.13 L
243.879 202.13 L
245.379 201.041 L
245.952 199.277 LE
257.054 199.277 LS
256.481 197.514 L
254.981 196.424 L
253.127 196.424 L
251.627 197.514 L
251.054 199.277 L
251.627 201.041 L
253.127 202.13 L
254.981 202.13 L
256.481 201.041 L
257.054 199.277 LE
268.156 199.277 LS
267.583 197.514 L
266.083 196.424 L
264.229 196.424 L
262.729 197.514 L
262.156 199.277 L
262.729 201.041 L
264.229 202.13 L
266.083 202.13 L
267.583 201.041 L
268.156 199.277 LE
279.259 199.277 LS
278.686 197.514 L
277.186 196.424 L
275.332 196.424 L
273.832 197.514 L
273.259 199.277 L
273.832 201.041 L
275.332 202.13 L
277.186 202.13 L
278.686 201.041 L
279.259 199.277 LE
290.361 199.277 LS
289.788 197.514 L
288.288 196.424 L
286.434 196.424 L
284.934 197.514 L
284.361 199.277 L
284.934 201.041 L
286.434 202.13 L
288.288 202.13 L
289.788 201.041 L
290.361 199.277 LE
301.464 199.277 LS
300.891 197.514 L
299.391 196.424 L
297.537 196.424 L
296.037 197.514 L
295.464 199.277 L
296.037 201.041 L
297.537 202.13 L
299.391 202.13 L
300.891 201.041 L
301.464 199.277 LE
312.566 199.277 LS
311.993 197.514 L
310.493 196.424 L
308.639 196.424 L
307.139 197.514 L
306.566 199.277 L
307.139 201.041 L
308.639 202.13 L
310.493 202.13 L
311.993 201.041 L
312.566 199.277 LE
323.669 199.277 LS
323.096 197.514 L
321.596 196.424 L
319.742 196.424 L
318.242 197.514 L
317.669 199.277 L
318.242 201.041 L
319.742 202.13 L
321.596 202.13 L
323.096 201.041 L
323.669 199.277 LE
334.771 199.277 LS
334.198 197.514 L
332.698 196.424 L
330.844 196.424 L
329.344 197.514 L
328.771 199.277 L
329.344 201.041 L
330.844 202.13 L
332.698 202.13 L
334.198 201.041 L
334.771 199.277 LE
345.874 199.277 LS
345.301 197.514 L
343.801 196.424 L
341.946 196.424 L
340.446 197.514 L
339.874 199.277 L
340.446 201.041 L
341.946 202.13 L
343.801 202.13 L
345.301 201.041 L
345.874 199.277 LE
356.976 199.277 LS
356.403 197.514 L
354.903 196.424 L
353.049 196.424 L
351.549 197.514 L
350.976 199.277 L
351.549 201.041 L
353.049 202.13 L
354.903 202.13 L
356.403 201.041 L
356.976 199.277 LE
368.078 199.277 LS
367.505 197.514 L
366.005 196.424 L
364.151 196.424 L
362.651 197.514 L
362.078 199.277 L
362.651 201.041 L
364.151 202.13 L
366.005 202.13 L
367.505 201.041 L
368.078 199.277 LE
379.181 199.277 LS
378.608 197.514 L
377.108 196.424 L
375.254 196.424 L
373.754 197.514 L
373.181 199.277 L
373.754 201.041 L
375.254 202.13 L
377.108 202.13 L
378.608 201.041 L
379.181 199.277 LE
390.283 199.277 LS
389.71 197.514 L
388.21 196.424 L
386.356 196.424 L
384.856 197.514 L
384.283 199.277 L
384.856 201.041 L
386.356 202.13 L
388.21 202.13 L
389.71 201.041 L
390.283 199.277 LE
401.386 199.277 LS
400.813 197.514 L
399.313 196.424 L
397.459 196.424 L
395.959 197.514 L
395.386 199.277 L
395.959 201.041 L
397.459 202.13 L
399.313 202.13 L
400.813 201.041 L
401.386 199.277 LE
412.488 199.277 LS
411.915 197.514 L
410.415 196.424 L
408.561 196.424 L
407.061 197.514 L
406.488 199.277 L
407.061 201.041 L
408.561 202.13 L
410.415 202.13 L
411.915 201.041 L
412.488 199.277 LE
423.591 199.277 LS
423.018 197.514 L
421.518 196.424 L
419.664 196.424 L
418.164 197.514 L
417.591 199.277 L
418.164 201.041 L
419.664 202.13 L
421.518 202.13 L
423.018 201.041 L
423.591 199.277 LE
434.693 199.277 LS
434.12 197.514 L
432.62 196.424 L
430.766 196.424 L
429.266 197.514 L
428.693 199.277 L
429.266 201.041 L
430.766 202.13 L
432.62 202.13 L
434.12 201.041 L
434.693 199.277 LE
445.795 199.277 LS
445.223 197.514 L
443.723 196.424 L
441.868 196.424 L
440.368 197.514 L
439.795 199.277 L
440.368 201.041 L
441.868 202.13 L
443.723 202.13 L
445.223 201.041 L
445.795 199.277 LE
456.898 199.277 LS
456.325 197.514 L
454.825 196.424 L
452.971 196.424 L
451.471 197.514 L
450.898 199.277 L
451.471 201.041 L
452.971 202.13 L
454.825 202.13 L
456.325 201.041 L
456.898 199.277 LE
468 199.277 LS
467.427 197.514 L
465.927 196.424 L
464.073 196.424 L
462.573 197.514 L
462 199.277 L
462.573 201.041 L
464.073 202.13 L
465.927 202.13 L
467.427 201.041 L
468 199.277 LE
479.103 199.277 LS
478.53 197.514 L
477.03 196.424 L
475.176 196.424 L
473.676 197.514 L
473.103 199.277 L
473.676 201.041 L
475.176 202.13 L
477.03 202.13 L
478.53 201.041 L
479.103 199.277 LE
490.205 199.277 LS
489.632 197.514 L
488.132 196.424 L
486.278 196.424 L
484.778 197.514 L
484.205 199.277 L
484.778 201.041 L
486.278 202.13 L
488.132 202.13 L
489.632 201.041 L
490.205 199.277 LE
501.308 199.277 LS
500.735 197.514 L
499.235 196.424 L
497.381 196.424 L
495.881 197.514 L
495.308 199.277 L
495.881 201.041 L
497.381 202.13 L
499.235 202.13 L
500.735 201.041 L
501.308 199.277 LE
512.41 199.277 LS
511.837 197.514 L
510.337 196.424 L
508.483 196.424 L
506.983 197.514 L
506.41 199.277 L
506.983 201.041 L
508.483 202.13 L
510.337 202.13 L
511.837 201.041 L
512.41 199.277 LE
[16 0] 0 setdash
0 0 0 C
77.025 357.077 LS
184.919 357.077 LE
77.025 397.455 LS
184.919 397.455 LE
77.025 357.077 LS
77.025 397.455 LE
184.919 357.077 LS
184.919 397.455 LE
(podatki) 97.4022 390.725 10 /Helvetica SCL
(periodicni model) 97.4022 377.266 10 /Helvetica SCL
(polinomski model) 97.4022 363.807 10 /Helvetica SCL
[] 0 setdash
0 0 1 C
79.17 390.725 LS
95.2572 390.725 LE
90.2136 390.725 LS
89.6406 388.962 L
88.1406 387.872 L
86.2865 387.872 L
84.7865 388.962 L
84.2136 390.725 L
84.7865 392.489 L
86.2865 393.579 L
88.1406 393.579 L
89.6406 392.489 L
90.2136 390.725 LE
1 0 0 C
79.17 377.266 LS
95.2572 377.266 LE
84.2136 380.266 LS
90.2136 374.266 LE
84.2136 374.266 LS
90.2136 380.266 LE
0 1 0 C
79.17 363.807 LS
95.2572 363.807 LE
90.2136 363.807 LS
89.6406 362.044 L
88.1406 360.954 L
86.2865 360.954 L
84.7865 362.044 L
84.2136 363.807 L
84.7865 365.57 L
86.2865 366.66 L
88.1406 366.66 L
89.6406 365.57 L
90.2136 363.807 LE
0 0 0 C
(Povprecna sprememba letnih prirastkov) 298.081 409.6 10 /Helvetica SBC
grestore
showpage
cleartomark
%%PageTrailer
%%Trailer
end
%%EOF
